57
8.1669 11.5636 7.4128 90.0 93.312 90.0
C  3.5150523085  3.7462594920  1.6409688394
C  4.5126059935  4.6540020920  2.0705631441
H  4.3506639726  5.7228256400  1.9448300306
C  5.6848918676  4.2000151560  2.6377312322
H  6.4521831457  4.8902464400  2.9720081442
C  5.8780393230  2.8220965800  2.7802632961
C  4.8993773819  1.9061438240  2.3727962432
H  5.0763899239  0.8487682400  2.5006014739
C  3.7167232285  2.3477577080  1.8027419919
N  2.3617979172  4.2204827280  1.1062145852
H  2.3321722536  5.1897436800  0.8377273952
H  1.6461775102  3.5962796000  0.7526225803
N  7.0939317712  2.3501860640  3.3658584267
O  7.9527697158  3.1765209200  3.7002093429
O  7.2686063997  1.1364706080  3.5157169051
C  2.6599198668  1.3824283800  1.3484302887
H  1.7258531590  1.5344897200  1.8878468068
H  2.4241671226  1.5113625200  0.2782557426
H  2.9969273707  0.3619406800  1.5015449514
C -0.5683976915  7.8173405080  1.6409688394
C  0.4291559935  6.9095979080  2.0705631441
H  0.2672139726  5.8407743600  1.9448300306
C  1.6014418676  7.3635848440  2.6377312322
H  2.3687331457  6.6733535600  2.9720081442
C  1.7945893230  8.7415034200  2.7802632961
C  0.8159273819  9.6574561760  2.3727962432
H  0.9929399239  10.7148317600  2.5006014739
C -0.3667267715  9.2158422920  1.8027419919
N -1.7216520828  7.3431172720  1.1062145852
H -1.7512777464  6.3738563200  0.8377273952
H -2.4372724898  7.9673204000  0.7526225803
N  3.0104817712  9.2134139360  3.3658584267
O  3.8693197158  8.3870790800  3.7002093429
O  3.1851563997  10.4271293920  3.5157169051
C -1.4235301332  10.1811716200  1.3484302887
H -2.3575968410  10.0291102800  1.8878468068
H -1.6592828774  10.0522374800  0.2782557426
H -1.0865226293  11.2016593200  1.5015449514
C  3.3009220243  2.0355405080  5.3411781823
C  4.2984757093  1.1277979080  5.7707724870
H  4.1365336884  0.0589743600  5.6450393735
C  5.4707615833  1.5817848440  6.3379405751
H  6.2380528614  0.8915535600  6.6722174871
C  5.6639090388  2.9597034200  6.4804726390
C  4.6852470977  3.8756561760  6.0730055861
H  4.8622596397  4.9330317600  6.2008108169
C  3.5025929443  3.4340422920  5.5029513348
N  2.1476676330  1.5613172720  4.8064239281
H  2.1180419694  0.5920563200  4.5379367381
H  1.4320472259  2.1855204000  4.4528319233
N  6.8798014870  3.4316139360  7.0660677696
O  7.7386394315  2.6052790800  7.4004186858
O  7.0544761155  4.6453293920  7.2159262480
C  2.4457895826  4.3993716200  5.0486396317
H  1.5117228747  4.2473102800  5.5880561497
H  2.2100368384  4.2704374800  3.9784650855
H  2.7827970864  5.4198593200  5.2017542943
