19
8.1669 11.5636 7.4128 90. 93.312 90.
C 4.4996230009 5.7560710024 4.6445610007
C 4.7117670006 4.355623999 4.8116739989
C 5.9002939998 3.9257560007 5.3759060014
H 6.0798030006 2.8654610007 5.4934979985
C 6.8815000263 4.8366879977 5.7952509986
C 6.670459975 6.2151170011 5.6550049993
H 7.4242460264 6.9135389984 5.9910130001
C 5.4964940011 6.6633119989 5.0860699979
H 5.330194999 7.7287820239 4.9647580014
C 3.6691279981 3.366041002 4.3603470023
H 3.9973690005 2.3488970002 4.5808329991
H 2.7130469986 3.5336609997 4.867555001
H 3.4727619991 3.451930998 3.2850990001
N 3.3502640001 6.2348700009 4.0876200018
H 3.3514289996 7.1844079995 3.7421799993
H 2.6327469978 5.6185299981 3.7230280019
N 8.1132530086 4.3407639991 6.3576180007
O 8.9857449911 5.1461780025 6.7077550012
O 8.2617260043 3.1139840019 6.4777580019
