8.1669 11.5636 7.4128 90. 93.312 90.
1 4
1 1 1 1
x+1/2,-y,z
x,y,z
x+1/2,y+1/2,z+1/2
x,-y+1/2,z+1/2
19
C 0.44203 0.323970 0.22174
C 0.56722 0.402470 0.27979
H 0.5465 0.4949 0.2628
C 0.71478 0.363210 0.35643
H 0.8111 0.4229 0.4016
C 0.73944 0.244050 0.37569
C 0.61672 0.164840 0.32063
H 0.6393 0.0734 0.3379
C 0.46787 0.203030 0.24360
N 0.29703 0.364980 0.14948
H 0.2915 0.4488 0.1132
H 0.2069 0.3110 0.1017
N 0.89247 0.203240 0.45482
O 1 0.27470 0.5
O 0.91492 0.09828 0.47507
C 0.33525 0.119550 0.18221
H 0.2247 0.1327 0.2551
H 0.2988 0.1307 0.0376
H 0.3776 0.0313 0.2029
