7.6113 11.6304 8.2286 90. 94.050 90.
10. 4 Rcut Nop
19 19	Nat nat
6	-0.0948328101492	0.0744782673750	-0.2626342227324        0.265
6	-0.1505786388445	0.1510452218915	-0.3907683724280        -0.155
1	-0.1319307098670	0.2427251895945	-0.3723478577590        0.124
6	-0.2254890519251	0.1104682624372	-0.5367717794694        -0.105
1	-0.2688107268201	0.1691902932089	-0.6334641061041        0.133
6	-0.2467458144469	-0.0086753492409	-0.5591895679519    0.216
6	-0.1946053538508	-0.0856130212097	-0.4326636340324    -0.144
1	-0.2136027231345	-0.1769659073017	-0.4517773573286    0.128
6	-0.1195483516349	-0.0465380664657	-0.2849738582205    0.097
7	-0.0225079361733	0.1174032522292	-0.1201579942889        -0.648
1	0.0216606305881	0.1994718907603	-0.1183048352884            0.303
1	0.0258525514840	0.0659287572151	-0.0278517217199            0.304
7	-0.3216757886674	-0.0509689900566	-0.7105237306537    0.38
8	-0.3616532951488	0.0186573807085	-0.8225782720399        -0.429
8	-0.3450353579893	-0.1566244209575	-0.7296699711564    -0.449
6	-0.0601888191965	-0.1282299038048	-0.1502417911512    -0.411
1	0.0809580512012	-0.1191051811799	-0.1168087297400        0.137
1	-0.1281394677917	-0.1114446984958	-0.0394767221954    0.124
1	-0.0872663876335	-0.2169666799502	-0.1867254757401    0.13
 1  0  0   .0	# tozszamosc
 0  1  0   .0
 0  0  1   .0
 1  0  0   .5	# pl a pr y: a x.0.z
 0 -1  0   .0
 0  0  1   .0
 1  0  0   .5	# centrowanie I
 0  1  0   .5
 0  0  1   .5
 1  0  0   .0	# plaszczyzna c pr do y: n x,1/4,z
 0 -1  0   .5
 0  0  1   .5
