76
8.167 11.564 7.413 90.0 93.31 90.0
C  3.5184443399  3.7483788963  1.6349518946
C  3.7033443727  2.3404698778  1.8057201181
C  4.5367427084  4.6445975046  2.0628347303
H  4.3814451612  5.7110599863  1.9438379101
N  2.3797941535  4.2389712789  1.0976204278
H  2.3562573781  5.2073906532  0.8091605399
H  1.6348496574  3.6424737560  0.7509216765
C  4.8848309782  1.8901041285  2.3633858832
H  5.0384836046  0.8274591660  2.4974458954
C  2.6293473719  1.3856451118  1.3614663460
H  1.6877444427  1.5727956979  1.8908356342
H  2.4129068899  1.4941920595  0.2939927413
H  2.9290315120  0.3560754293  1.5581704012
C  5.7053845721  4.1761308851  2.6170223894
H  6.4751175595  4.8570110537  2.9544135330
C  5.8922585054  2.7904269912  2.7600751354
N  7.1038663779  2.3066153091  3.3208444626
O  7.9994349322  3.1193941691  3.6148550335
O  7.2556654797  1.0839424287  3.5012152454
C -0.5650556601  7.8156211037  1.6349518946
C -0.3801556273  9.2235301222  1.8057201181
C  0.4532427084  6.9194024954  2.0628347303
H  0.2979451612  5.8529400137  1.9438379101
N -1.7037058465  7.3250287211  1.0976204278
H -1.7272426219  6.3566093468  0.8091605399
H -2.4486503426  7.9215262440  0.7509216765
C  0.8013309782  9.6738958715  2.3633858832
H  0.9549836046  10.7365408340  2.4974458954
C -1.4541526281  10.1783548882  1.3614663460
H -2.3957555573  9.9912043021  1.8908356342
H -1.6705931101  10.0698079405  0.2939927413
H -1.1544684880  11.2079245707  1.5581704012
C  1.6218845721  7.3878691149  2.6170223894
H  2.3916175595  6.7069889463  2.9544135330
C  1.8087585054  8.7735730088  2.7600751354
N  3.0203663779  9.2573846909  3.3208444626
O  3.9159349322  8.4446058309  3.6148550335
O  3.1721654797  10.4800575713  3.5012152454
C -0.7790625563  9.5303788963  5.3352685430
C -0.5941625235  8.1224698778  5.5060367665
C  0.2392358122  10.4265975046  5.7631513787
H  0.0839382650  11.4930599863  5.6441545585
N -1.9177127428  10.0209712789  4.7979370762
H -1.9412495182  10.9893906532  4.5094771883
H -2.6626572389  9.4244737560  4.4512383249
C  0.5873240819  7.6721041285  6.0637025316
H  0.7409767083  6.6094591660  6.1977625438
C -1.6681595244  7.1676451118  5.0617829944
H -2.6097624536  7.3547956979  5.5911522826
H -1.8846000064  7.2761920595  3.9943093897
H -1.3684753843  6.1380754293  5.2584870495
C  1.4078776758  9.9581308851  6.3173390378
H  2.1776106633  10.6390110537  6.6547301814
C  1.5947516091  8.5724269912  6.4603917838
N  2.8063594816  8.0886153091  7.0211611110
O  3.7019280360  8.9013941691  7.3151716819
O  2.9581585834  6.8659424287  7.2015318938
C  3.3044374437  2.0336211037  5.3352685430
C  3.4893374765  3.4415301222  5.5060367665
C  4.3227358122  1.1374024954  5.7631513787
H  4.1674382650  0.0709400137  5.6441545585
N  2.1657872572  1.5430287211  4.7979370762
H  2.1422504818  0.5746093468  4.5094771883
H  1.4208427611  2.1395262440  4.4512383249
C  4.6708240819  3.8918958715  6.0637025316
H  4.8244767083  4.9545408340  6.1977625438
C  2.4153404756  4.3963548882  5.0617829944
H  1.4737375464  4.2092043021  5.5911522826
H  2.1988999936  4.2878079405  3.9943093897
H  2.7150246157  5.4259245707  5.2584870495
C  5.4913776758  1.6058691149  6.3173390378
H  6.2611106633  0.9249889463  6.6547301814
C  5.6782516091  2.9915730088  6.4603917838
N  6.8898594816  3.4753846909  7.0211611110
O  7.7854280360  2.6626058309  7.3151716819
O  7.0416585834  4.6980575713  7.2015318938
