8.167 11.564 7.413 90.0 93.31 90.0
1 4
1 1 1 1
x, y, z
x+1/2, -y, z
x+1/2, y+1/2, z+1/2
x, -y+1/2, z+1/2
19
C  0.4420300000  0.3239700000  0.2217400000  0.0000000000
C  0.4678700000  0.2030300000  0.2436000000  0.0000000000
C  0.5672200000  0.4024700000  0.2797900000  0.0000000000
H  0.5466018016  0.4944458723  0.2628834754  0.0000000000
N  0.2970300000  0.3649800000  0.1494800000  0.0000000000
H  0.2911825121  0.4536122670  0.1111170956  0.0000000000
H  0.2023929911  0.3083006952  0.0993107302  0.0000000000
C  0.6167200000  0.1648400000  0.3206300000  0.0000000000
H  0.6393686323  0.0731220667  0.3379524924  0.0000000000
C  0.3352500000  0.1195500000  0.1822100000  0.0000000000
H  0.2253395769  0.1326239219  0.2546783016  0.0000000000
H  0.2994749492  0.1304935341  0.0402777614  0.0000000000
H  0.3774991880  0.0315100746  0.2028507485  0.0000000000
C  0.7147800000  0.3632100000  0.3564300000  0.0000000000
H  0.8109329676  0.4227964892  0.4015216689  0.0000000000
C  0.7394400000  0.2440500000  0.3756900000  0.0000000000
N  0.8924700000  0.2032400000  0.4548200000  0.0000000000
O  1.0000000000  0.2747000000  0.5000000000  0.0000000000
O  0.9149200000  0.0982800000  0.4750700000  0.0000000000
