bulk properties
static
 3.70093  0.00000 -0.21801
 0.00000  1.58148  0.00000
-0.21801  0.00000  1.49138

 215.49973  0.00000 -10.42033
 0.00000  25.48801  0.00000
-10.42033  0.00000 -3.79280
 0.00000  25.48801  0.00000
 25.48801  0.00000 -1.90010
 0.00000 -1.90010  0.00000
-10.42033  0.00000 -3.79280
 0.00000 -1.90010  0.00000
-3.79280  0.00000  1.17286

1907.0
 3.87105  0.00000 -0.23113
 0.00000  1.60652  0.00000
-0.23113  0.00000  1.50035

 4.58761  0.00000 -0.28673
 0.00000  1.70548  0.00000
-0.28673  0.00000  1.53023

 354.59499  0.00000 -19.16610
 0.00000  40.87165  0.00000
-19.16610  0.00000 -5.13595
 0.00000  40.83122  0.00000
 40.83122  0.00000 -2.97484
 0.00000 -2.97484  0.00000
-20.96267  0.00000 -3.39710
 0.00000 -2.98846  0.00000
-3.39710  0.00000  1.36440

1542.0
 3.97207  0.00000 -0.23893
 0.00000  1.62106  0.00000
-0.23893  0.00000  1.50526

 5.44843  0.00000 -0.35489
 0.00000  1.81436  0.00000
-0.35489  0.00000  1.55614

 504.58471  0.00000 -29.28494
 0.00000  56.72655  0.00000
-29.28494  0.00000 -6.26035
 0.00000  56.60107  0.00000
 56.60107  0.00000 -4.08536
 0.00000 -4.08536  0.00000
-33.29356  0.00000 -2.47209
 0.00000 -4.11047  0.00000
-2.47209  0.00000  1.45802

1318.0
 4.08960  0.00000 -0.24801
 0.00000  1.63770  0.00000
-0.24801  0.00000  1.51065

 7.37534  0.00000 -0.50673
 0.00000  2.02605  0.00000
-0.50673  0.00000  1.59898

 897.68847  0.00000 -56.13581
 0.00000  93.64393  0.00000
-56.13581  0.00000 -8.05543
 0.00000  93.21997  0.00000
 93.21997  0.00000 -6.51799
 0.00000 -6.51799  0.00000
-65.02281  0.00000  1.35924
 0.00000 -6.45904  0.00000
 1.35924  0.00000  1.39580

