10.365 11.322 17.893 90.0 92.24 90.0
2 4
1 1 1 1
1 1 1 1
x, y, z
x, -y, z+1/2
x+1/2, y+1/2, z
x+1/2, -y+1/2, z+1/2
18
S  0.4599575964  0.2001503211  0.5806132250  1.6781115000
O  0.5093308420  0.1322232005  0.6532440208 -0.7862116000
O  0.4806121415  0.1237650193  0.5082031523 -0.7806565000
O  0.5147683611  0.3295847607  0.5743884199 -0.7896525000
C  0.2840555442  0.2154480610  0.5883568768 -0.3607786000
C  0.2104283870  0.1135000959  0.5951778921 -0.0539924000
H  0.2555219328  0.0270741321  0.5963310711  0.1242568000
C  0.2280395962  0.3267007023  0.5868049244 -0.0459170000
H  0.2886647863  0.4038797332  0.5808591760  0.1375619000
C  0.0771392997  0.1238092084  0.6004949998 -0.1625404000
H  0.0201989247  0.0436005259  0.6042857069  0.1433801000
C  0.0943880664  0.3364882660  0.5934574811 -0.1633767000
H  0.0510184145  0.4239325821  0.5935152918  0.1595596000
C  0.0173662978  0.2353987979  0.6002685029  0.1049035000
C -0.1270101744  0.2451396617  0.6065558674 -0.4021582000
H -0.1781124293  0.2199007366  0.5542180156  0.1480993000
H -0.1560414378  0.3353702065  0.6195541000  0.1283392000
H -0.1622035980  0.1869971328  0.6501148277  0.1322722000
37
N  0.1323533970  0.8095173298  0.3582711434 -0.2974253000
C  0.1822287853  0.8505757400  0.4245500366  0.0750957000
H  0.1211114146  0.8434396147  0.4724957854  0.2208849000
C  0.2029493589  0.8136738328  0.2959857414  0.0944097000
H  0.1568818498  0.7787129704  0.2453498940  0.1510880000
C -0.0005180966  0.7639479220  0.3535872930 -0.2636569000
H -0.0080530243  0.6995206924  0.3083984507  0.1376471000
H -0.0674447453  0.8369832650  0.3426081941  0.1668092000
H -0.0201207744  0.7203638405  0.4063871295  0.2134845000
C  0.3046145310  0.8978278418  0.4290180629 -0.1799016000
H  0.3422428701  0.9331758127  0.4817282023  0.1336866000
C  0.3258915404  0.8587033559  0.2977005543 -0.1542460000
H  0.3788271835  0.8581656755  0.2465461806  0.1764713000
C  0.3816257031  0.9032881380  0.3655586751  0.1632627000
C  0.5101407521  0.9513050211  0.3732830872 -0.1816695000
H  0.5368571441  0.9851903708  0.4284869523  0.1434127000
C  0.5943159904  0.9573940561  0.3168277354 -0.1388788000
H  0.5640376782  0.9263797636  0.2613359219  0.1605626000
C  0.7247294076  1.0019796143  0.3227733269  0.0956430000
C  0.7872934926  1.0373232604  0.3907948697 -0.1409792000
H  0.7364634950  1.0317421050  0.4426036337  0.1138112000
C  0.7954532234  1.0128661408  0.2572237940 -0.1761402000
H  0.7485691507  0.9872836876  0.2043031517  0.1194946000
C  0.9121408693  1.0801500854  0.3932483203 -0.1463683000
H  0.9553346777  1.1068537508  0.4466334424  0.1026759000
C  0.9200138322  1.0570499892  0.2582923291 -0.1524049000
H  0.9680224432  1.0681674131  0.2061016751  0.1200541000
C  0.9830061885  1.0914294864  0.3268943836  0.2685478000
N  1.1067099559  1.1328811516  0.3291098218 -0.3879841000
C  1.1688924914  1.1697157373  0.3996186383 -0.2090630000
H  1.1324724990  1.2548836090  0.4189508003  0.1329011000
H  1.1552678449  1.1039631008  0.4430911264  0.1289023000
H  1.2723827448  1.1769151535  0.3929224933  0.1255422000
C  1.1725178513  1.1534692711  0.2596934444 -0.2339796000
H  1.1201045101  1.2157813451  0.2228702021  0.1875331000
H  1.2676837674  1.1899683853  0.2734708029  0.1011863000
H  1.1856179941  1.0707707564  0.2289892468  0.1183905000
