55
10.365 11.322 17.893 90.0 92.24 90.0
S  4.3614055146  2.2661019356  10.3809739877
O  4.8223644678  1.4970310757  11.6795637716
O  4.6261302465  1.4012675489  9.0863305851
O  4.9338724408  3.7315586603  10.2696786583
C  2.5327651789  2.4393029465  10.5194252743
C  1.7648493802  1.2850480860  10.6413804399
H  2.2314375010  0.3065333231  10.6619985060
C  1.9532452440  3.6989053509  10.4916774096
H  2.5857835303  4.5727263394  10.3853714260
C  0.3795894430  1.4017678578  10.7364467509
H -0.2132485949  0.4936451546  10.8042220447
C  0.5632946360  3.8097201476  10.6106206493
H  0.1137277646  4.7997646947  10.6116542646
C -0.2397993200  2.6651851898  10.7323971374
C -1.7406585563  2.7754712499  10.8448109864
H -2.2337306708  2.4897161402  9.9090453960
H -2.0506579852  3.7970614783  11.0772106451
H -2.1359015844  2.1171815370  11.6236159037
N  1.1212841142  9.1653552083  6.4056470981
C  1.5918900153  9.6302185278  7.5906691345
H  0.9248773514  9.5494233174  8.4479068786
C  1.8965708896  9.2124151347  5.2920259992
H  1.4544936093  8.8165882508  4.3866911015
C -0.2526532406  8.6494183724  6.3219030030
H -0.2991497071  7.9199732791  5.5139568945
H -0.9386696625  9.4763245265  6.1256040984
H -0.4927608452  8.1559594019  7.2659285715
C  2.8572935306  10.1652068245  7.6705544400
H  3.2104481466  10.5654165518  8.6129762851
C  3.1696673366  9.7222393954  5.3226857014
H  3.7541203636  9.7161517775  4.4080799018
C  3.6998949929  10.2270282989  6.5359432652
C  5.0265513664  10.7706754491  6.6740505580
H  5.2648596511  11.1543253787  7.6610585407
C  5.9385100643  10.8396155028  5.6646668346
H  5.6634838566  10.4884716835  4.6725105293
C  7.2860870526  11.3444131926  5.7709700137
C  7.8869925634  11.7445739544  6.9871494525
H  7.3239069014  11.6813841130  7.9134553103
C  8.0649818207  11.4676704464  4.5989884484
H  7.6160387424  11.1780259106  3.6528029542
C  9.1793197883  12.2294592669  7.0310154993
H  9.5896884413  12.5317981662  7.9855055787
C  9.3553052448  11.9679199780  4.6180931365
H  9.8894143119  12.0937914516  3.6849593432
C  9.9602438031  12.3571646453  5.8446517352
N  11.2408839743  12.8264803984  5.8842622797
C  11.8360952361  13.2435215776  7.1449125011
H  11.4450819635  14.2077922214  7.4905585551
H  11.6644730572  12.4990702273  7.9221713518
H  12.9134546968  13.3250333681  7.0251899321
C  11.9715295254  13.0595790872  4.6431441373
H  11.4540177764  13.7650763895  3.9847693280
H  12.9482889764  13.4728220582  4.8894740406
H  12.1287856514  12.1232665041  4.0941737328
