  lambda      aa    b'b'    c*c*     ac*      n1      n2      n3     aaa    aac*    c*aa   ab'b'   b'ab'   ac*c*   c*ac*  b'b'c*  c*b'b'  c*c*c*
  static   3.701   1.581   1.491  -0.218   2.173   1.607   1.572   215.4    11.4    11.4    25.6    25.6    -3.7    -3.7     0.6     0.6    -0.0
  1907.0   3.871   1.607   1.500  -0.231   2.212   1.614   1.574   355.2    16.1    14.1    41.0    40.9    -5.5    -3.9     1.0     1.0    -0.0
  1542.0   3.972   1.621   1.505  -0.239   2.235   1.619   1.576   506.3    20.3    15.9    56.9    56.7    -7.2    -3.8     1.3     1.3    -0.0
  1318.0   4.090   1.638   1.511  -0.248   2.261   1.624   1.577   902.2    30.7    21.0    93.8    93.4   -10.6    -2.0     2.4     2.5     0.1
   953.5   4.588   1.705   1.530  -0.287   2.369   1.645   1.582
   771.0   5.448   1.814   1.556  -0.355   2.546   1.678   1.589
   659.0   7.375   2.026   1.599  -0.507   2.902   1.740   1.598
