39
8.1669 11.5636 7.4128 90. 93.312 90.
C 3.4996230009 3.7560710024 1.6445610007
C 3.7117670006 2.3556239990 1.8116739989
C 4.9002939998 1.9257560007 2.3759060014
H 5.0798030006 0.8654610007 2.4934979985
C 5.8815000263 2.8366879977 2.7952509986
C 5.6704599750 4.2151170011 2.6550049993
H 6.4242460264 4.9135389984 2.9910130001
C 4.4964940011 4.6633119989 2.0860699979
H 4.3301949990 5.7287820239 1.9647580014
C 2.6691279981 1.3660410020 1.3603470023
H 2.9973690005 0.3488970002 1.5808329991
H 1.7130469986 1.5336609997 1.8675550010
H 2.4727619991 1.4519309980 0.2850990001
N 2.3502640001 4.2348700009 1.0876200018
H 2.3514289996 5.1844079995 0.7421799993
H 1.6327469978 3.6185299981 0.7230280019
N 7.1132530086 2.3407639991 3.3576180007
O 7.9857449911 3.1461780025 3.7077550012
O 7.2617260043 1.1139840019 3.4777580019
C 8.4996230009 8.7560710024 6.6445610007
C 8.7117670006 7.355623999 6.8116739989
C 9.9002939998 6.9257560007 7.3759060014
H 10.0798030006 5.8654610007 7.4934979985
C 10.8815000263 7.8366879977 7.7952509986
C 10.670459975 9.2151170011 7.6550049993
H 11.4242460264 9.9135389984 7.9910130001
C 9.4964940011 9.6633119989 7.0860699979
H 9.330194999 10.7287820239 6.9647580014
C 7.6691279981 6.366041002 6.3603470023
H 7.9973690005 5.3488970002 6.5808329991
H 6.7130469986 6.5336609997 6.867555001
H 7.4727619991 6.451930998 5.2850990001
N 7.3502640001 9.2348700009 6.0876200018
H 7.3514289996 10.1844079995 5.7421799993
H 6.6327469978 8.6185299981 5.7230280019
N 12.1132530086 7.3407639991 8.3576180007
O 12.9857449911 8.1461780025 8.7077550012
O 12.2617260043 6.1139840019 8.4777580019
Na 0. 0. 0.
