bulk properties
static
 2.72937  0.00000  0.81675
 0.00000  1.89525  0.00000
 0.81675  0.00000  1.38529

-59.49938  0.00000 -30.84003
 0.00000 -5.15666  0.00000
-30.84003  0.00000 -13.10606
 0.00000 -5.15666  0.00000
-5.15666  0.00000 -2.59972
 0.00000 -2.59972  0.00000
-30.84003  0.00000 -13.10606
 0.00000 -2.59972  0.00000
-13.10606  0.00000 -4.06959

1907.0
 2.78120  0.00000  0.83736
 0.00000  1.92524  0.00000
 0.83736  0.00000  1.40210

 2.96379  0.00000  0.91067
 0.00000  2.02814  0.00000
 0.91067  0.00000  1.46000

-74.80219  0.00000 -38.52649
 0.00000 -6.10715  0.00000
-38.52649  0.00000 -16.41984
 0.00000 -7.06108  0.00000
-7.06108  0.00000 -3.54920
 0.00000 -3.54920  0.00000
-38.36033  0.00000 -16.55331
 0.00000 -3.09013  0.00000
-16.55331  0.00000 -5.38201

1542.0
 2.81029  0.00000  0.84897
 0.00000  1.94190  0.00000
 0.84897  0.00000  1.41145

 3.12502  0.00000  0.97620
 0.00000  2.11585  0.00000
 0.97620  0.00000  1.50971

-85.89428  0.00000 -44.00057
 0.00000 -6.75064  0.00000
-44.00057  0.00000 -18.83447
 0.00000 -8.45139  0.00000
-8.45139  0.00000 -4.23109
 0.00000 -4.23109  0.00000
-43.69984  0.00000 -19.07177
 0.00000 -3.41113  0.00000
-19.07177  0.00000 -6.43060

1318.0
 2.84262  0.00000  0.86190
 0.00000  1.96031  0.00000
 0.86190  0.00000  1.42179

 3.33955  0.00000  1.06434
 0.00000  2.22857  0.00000
 1.06434  0.00000  1.57417

-101.10913  0.00000 -51.49140
 0.00000 -7.59293  0.00000
-51.49140  0.00000 -22.14028
 0.00000 -10.37635  0.00000
-10.37635  0.00000 -5.17514
 0.00000 -5.17514  0.00000
-50.98956  0.00000 -22.52723
 0.00000 -3.83011  0.00000
-22.52723  0.00000 -7.88403

1064.0
 2.91135  0.00000  0.88951
 0.00000  1.99900  0.00000
 0.88951  0.00000  1.44356

 3.99347  0.00000  1.33793
 0.00000  2.54990  0.00000
 1.33793  0.00000  1.76201

-149.76905  0.00000 -75.35548
 0.00000 -10.07029  0.00000
-75.35548  0.00000 -32.67574
 0.00000 -16.56909  0.00000
-16.56909  0.00000 -8.21505
 0.00000 -8.21505  0.00000
-74.12356  0.00000 -33.57327
 0.00000 -5.05589  0.00000
-33.57327  0.00000 -12.59943

