bulk properties
static
 3.69569  0.00000 -0.20173
 0.00000  1.56844  0.00000
-0.20173  0.00000  1.40536

 215.11245  0.00000 -7.61601
 0.00000  28.96630  0.00000
-7.61601  0.00000 -3.95457
 0.00000  28.96630  0.00000
 28.96630  0.00000 -1.77188
 0.00000 -1.77188  0.00000
-7.61601  0.00000 -3.95457
 0.00000 -1.77188  0.00000
-3.95457  0.00000  1.05469

1907.0
 3.82642  0.00000 -0.20404
 0.00000  1.59691  0.00000
-0.20404  0.00000  1.43366

 4.49836  0.00000 -0.18455
 0.00000  1.68880  0.00000
-0.18455  0.00000  1.54782

 343.25704  0.00000 -12.53088
 0.00000  45.98093  0.00000
-12.53088  0.00000 -5.71617
 0.00000  46.49859  0.00000
 46.49859  0.00000 -2.63080
 0.00000 -2.63080  0.00000
-8.99388  0.00000 -4.29752
 0.00000 -1.97654  0.00000
-4.29752  0.00000  1.22284

1542.0
 3.90343  0.00000 -0.20531
 0.00000  1.61331  0.00000
-0.20531  0.00000  1.44984

 5.13239  0.00000 -0.18232
 0.00000  1.80608  0.00000
-0.18232  0.00000  1.65740

 466.70756  0.00000 -17.10917
 0.00000  62.49556  0.00000
-17.10917  0.00000 -7.30847
 0.00000  63.06770  0.00000
 63.06770  0.00000 -3.42529
 0.00000 -3.42529  0.00000
-10.40137  0.00000 -4.35652
 0.00000 -2.13769  0.00000
-4.35652  0.00000  1.31641

1318.0
 3.99242  0.00000 -0.20671
 0.00000  1.63197  0.00000
-0.20671  0.00000  1.46812

 6.34404  0.00000 -0.15245
 0.00000  2.00869  0.00000
-0.15245  0.00000  1.83753

 716.85683  0.00000 -25.41725
 0.00000  96.20156  0.00000
-25.41725  0.00000 -10.43219
 0.00000  96.86609  0.00000
 96.86609  0.00000 -4.93190
 0.00000 -4.93190  0.00000
-6.72749  0.00000 -4.02326
 0.00000 -1.48939  0.00000
-4.02326  0.00000  1.34072

