bulk properties
static
 2.72937  0.00000  0.81675
 0.00000  1.89525  0.00000
 0.81675  0.00000  1.38529

-59.49938  0.00000 -30.84003
 0.00000 -5.15666  0.00000
-30.84003  0.00000 -13.10606
 0.00000 -5.15666  0.00000
-5.15666  0.00000 -2.59972
 0.00000 -2.59972  0.00000
-30.84003  0.00000 -13.10606
 0.00000 -2.59972  0.00000
-13.10606  0.00000 -4.06959

1907.0
 2.79216  0.00000  0.84497
 0.00000  1.91129  0.00000
 0.84497  0.00000  1.40157

 3.01570  0.00000  0.94611
 0.00000  1.96399  0.00000
 0.94611  0.00000  1.45832

-75.53288  0.00000 -38.90061
 0.00000 -6.12856  0.00000
-38.90061  0.00000 -16.59126
 0.00000 -7.06440  0.00000
-7.06440  0.00000 -3.55131
 0.00000 -3.55131  0.00000
-38.73112  0.00000 -16.75977
 0.00000 -3.10115  0.00000
-16.75977  0.00000 -5.48558

1542.0
 2.82752  0.00000  0.86090
 0.00000  1.92007  0.00000
 0.86090  0.00000  1.41067

 3.21623  0.00000  1.03757
 0.00000  2.00626  0.00000
 1.03757  0.00000  1.50795

-87.29247  0.00000 -44.71662
 0.00000 -6.79688  0.00000
-44.71662  0.00000 -19.16215
 0.00000 -8.44930  0.00000
-8.44930  0.00000 -4.23123
 0.00000 -4.23123  0.00000
-44.40992  0.00000 -19.46348
 0.00000 -3.43436  0.00000
-19.46348  0.00000 -6.62523

1318.0
 2.86694  0.00000  0.87870
 0.00000  1.92966  0.00000
 0.87870  0.00000  1.42076

 3.48771  0.00000  1.16214
 0.00000  2.05754  0.00000
 1.16214  0.00000  1.57370

-103.61784  0.00000 -52.77593
 0.00000 -7.68568  0.00000
-52.77593  0.00000 -22.72723
 0.00000 -10.35717  0.00000
-10.35717  0.00000 -5.16806
 0.00000 -5.16806  0.00000
-52.26350  0.00000 -23.22253
 0.00000 -3.87569  0.00000
-23.22253  0.00000 -8.22570

1064.0
 2.95112  0.00000  0.91679
 0.00000  1.94943  0.00000
 0.91679  0.00000  1.44210

 4.35009  0.00000  1.56126
 0.00000  2.18970  0.00000
 1.56126  0.00000  1.77588

-157.40330  0.00000 -79.25314
 0.00000 -10.40363  0.00000
-79.25314  0.00000 -34.44933
 0.00000 -16.43748  0.00000
-16.43748  0.00000 -8.15558
 0.00000 -8.15558  0.00000
-77.98182  0.00000 -35.62759
 0.00000 -5.21367  0.00000
-35.62759  0.00000 -13.58358

