date Tue Jan 29 14:58:12 CET 2019
copying input file
mna geometry optimization
crystal
1 0 0
I 1 a 1
8.1669 11.5636 7.4128 93.312
19
6  0.4417702741  0.3255863023  0.2203149291
6  0.4676104242  0.2046463162  0.2421752204
6  0.5669602322  0.4040859564  0.2783653665
1  0.5473134050  0.4917303701  0.2622545831
7  0.2967710956  0.3665963334  0.1480548969
1  0.2913599055  0.4486060187  0.1125579348
1  0.2092042350  0.3141516776  0.1016345453
6  0.6164606577  0.1664562435  0.3192051147
1  0.6380432576  0.0790574196  0.3357118101
6  0.3349906051  0.1211656866  0.1807845283
1  0.2263993817  0.1340833622  0.2523838062
1  0.2996447315  0.1319785541  0.0405559887
1  0.3767327896  0.0341828087  0.2011773777
6  0.7145202560  0.3648261847  0.3550047536
1  0.8061451945  0.4216067105  0.3979726980
6  0.7391809350  0.2456658596  0.3742652674
7  0.8922112533  0.2048564511  0.4533949819
8  0.9997412677  0.2763161536  0.4985748992
8  0.9146610042  0.0998962297  0.4736446003
optgeom
atomonly
end
end
1 3
0 0 3 1. 1.
     18.7311370              0.03349460       
      2.8253937              0.23472695       
      0.6401217              0.81375733       
0 0 1 0. 1.
      0.1612778              1.0000000        
0 2 1 0. 1.
      1.1                    1.0
6 4 
0 0 6 2. 1.
   3047.5249000              0.0018347        
    457.3695100              0.0140373        
    103.9486900              0.0688426        
     29.2101550              0.2321844        
      9.2866630              0.4679413        
      3.1639270              0.3623120        
0 1 3 4. 1.
      7.8682724             -0.1193324              0.0689991        
      1.8812885             -0.1608542              0.3164240        
      0.5442493              1.1434564              0.7443083        
0 1 1 0. 1.
      0.1687144              1.0000000              1.0000000        
0 3 1 0. 1.
      0.77                   1.0
7 4
0 0 6 2. 1.
   4173.5110000              0.0018348        
    627.4579000              0.0139950        
    142.9021000              0.0685870        
     40.2343300              0.2322410        
     12.8202100              0.4690700        
      4.3904370              0.3604550        
0 1 3 5. 1.
     11.6263580             -0.1149610              0.0675800        
      2.7162800             -0.1691180              0.3239070        
      0.7722180              1.1458520              0.7408950        
0 1 1 0. 1.
      0.2120313              1.0000000              1.0000000        
0 3 1 0. 1.
      1.19                   1.0
8 4
0 0 6 2. 1.
   5484.6717000              0.0018311        
    825.2349500              0.0139501        
    188.0469600              0.0684451        
     52.9645000              0.2327143        
     16.8975700              0.4701930        
      5.7996353              0.3585209        
0 1 3 6. 1.
     15.5396160             -0.1107775              0.0708743        
      3.5999336             -0.1480263              0.3397528        
      1.0137618              1.1307670              0.7271586        
0 1 1 0. 1.
      0.2700058              1.0000000              1.0000000        
0 3 1 0. 1.
      0.99                   1.0
99 0
end
DFT
B3LYP
END
mulpopan
SCFDIR
TOLINTEG
7 7 7 7 21
SHRINK
6 6
LEVSHIFT
6 1
MAXCYCLE
300
END

 *******************************************************************************
 *                                                                             *
 *                               CRYSTAL14                                     *
 *                      public : 1.0.3 - Sep 1st, 2014                         *
 *                       HTTP://WWW.CRYSTAL.UNITO.IT                           *
 *                                                                             *
 *                              MAIN AUTHORS                                   *
 *                                                                             *
 *  R. DOVESI(1,11), V.R. SAUNDERS(2), C. ROETTI(1,11), R. ORLANDO(1,11),      *
 *  C.M. ZICOVICH-WILSON(1,3), F. PASCALE(4), B. CIVALLERI(1,11),              *
 *  K. DOLL(5), N.M. HARRISON(2,6), I. J. BUSH(7), Ph. D'ARCO(8),              *
 *  M. LLUNELL(9), M. CAUSA'(10), Y. NOEL(8)                                   *
 *                                                                             *
 *        CONTRIBUTIONS TO THE CURRENT RELEASE HAVE BEEN GIVEN BY              *
 *                                                                             *
 *  L. MASCHIO(1,11), S. CASASSA(1,11), A. ERBA(1,11), M. FERRABONE(1,11),     *
 *  M. DE LA PIERRE(1,11), M. FERRERO(1,11), V. LACIVITA(1,11),                *
 *  J. BAIMA(1,11), E. ALBANESE(1,11), M.F. PEINTINGER(12), R. BAST(13),       *
 *  M. RERAT(14), B. KIRTMAN(15), R. DEMICHELIS(1,16)                          *
 *                                                                             *
 * (1) THEORETICAL CHEMISTRY GROUP - UNIVERSITA' DI TORINO - TORINO (ITALY)    *
 *     http://www.crystal.unito.it                                             *
 * (2) COMPUTATIONAL SCIENCE & ENGINEERING DEPARTMENT - STFC DARESBURY (UK)    *
 *     http://www.stfc.ac.uk/CSE/randd/cmg/CRYSTAL/25806.aspx                  *
 * (3) UNIVERSIDAD AUTONOMA DEL ESTADO DE MORELOS - CUERNAVACA (MEXICO)        *
 * (4) UNIVERSITE' DE LORRAINE - NANCY (FRANCE)                                *
 * (5) UNIVERSITAET ULM - ULM (GERMANY); (6) IMPERIAL COLLEGE - LONDON (UK)    *
 * (7) NAG - OXFORD (UK); (8) UPMC - SORBONNE UNIVERSITES - PARIS (FRANCE)     *
 * (9) UNIVERSIDAD DE BARCELONA - BARCELONA (SPAIN)                            *
 *(10) UNIVERSITA' DI NAPOLI "FEDERICO II" - NAPOLI (ITALY)                    *
 *(11) NIS - NANOSTRUCTURED INTERFACES AND SURFACES - TORINO (ITALY)           *
 *(12) MPI FUER CHEMISCHE ENERGIEKONVERSION - MUELHEIM AN DER RUHR (GERMANY)   *
 *(13) UNIVERSITY OF STOCKHOLM - STOCKHOLM (SWEDEN)                            *
 *(14) UNIVERSITE' DE PAU ET DES PAYS DE L'ADOUR - PAU (FRANCE)                *
 *(15) UNIVERSITY OF CALIFORNIA SANTA BARBARA - SANTA BARBARA (USA)            *
 *(16) CURTIN UNIVERSITY - PERTH (AUSTRALIA)                                   *
 *                                                                             *
 ********************************************************************************
 EEEEEEEEEE STARTING  DATE 29 01 2019 TIME 14:58:13.5
 mna geometry optimization                                                       

 CRYSTAL CALCULATION
 (INPUT ACCORDING TO THE INTERNATIONAL TABLES FOR X-RAY CRYSTALLOGRAPHY)
 CRYSTAL FAMILY                       :  MONOCLINIC  
 CRYSTAL CLASS  (GROTH - 1921)        :  MONOCLINIC DOMATIC                   

 SPACE GROUP (NONCENTROSYMMETRIC)     :  I 1 A 1         

 LATTICE PARAMETERS  (ANGSTROMS AND DEGREES) - CONVENTIONAL CELL
        A           B           C        ALPHA        BETA       GAMMA
     8.16690    11.56360     7.41280    90.00000    93.31200    90.00000


 NUMBER OF IRREDUCIBLE ATOMS IN THE CONVENTIONAL CELL:   19

 INPUT COORDINATES

 ATOM AT. N.              COORDINATES
   1   6     4.417702741000E-01  3.255863023000E-01  2.203149291000E-01
   2   6     4.676104242000E-01  2.046463162000E-01  2.421752204000E-01
   3   6     5.669602322000E-01  4.040859564000E-01  2.783653665000E-01
   4   1     5.473134050000E-01  4.917303701000E-01  2.622545831000E-01
   5   7     2.967710956000E-01  3.665963334000E-01  1.480548969000E-01
   6   1     2.913599055000E-01  4.486060187000E-01  1.125579348000E-01
   7   1     2.092042350000E-01  3.141516776000E-01  1.016345453000E-01
   8   6     6.164606577000E-01  1.664562435000E-01  3.192051147000E-01
   9   1     6.380432576000E-01  7.905741960000E-02  3.357118101000E-01
  10   6     3.349906051000E-01  1.211656866000E-01  1.807845283000E-01
  11   1     2.263993817000E-01  1.340833622000E-01  2.523838062000E-01
  12   1     2.996447315000E-01  1.319785541000E-01  4.055598870000E-02
  13   1     3.767327896000E-01  3.418280870000E-02  2.011773777000E-01
  14   6     7.145202560000E-01  3.648261847000E-01  3.550047536000E-01
  15   1     8.061451945000E-01  4.216067105000E-01  3.979726980000E-01
  16   6     7.391809350000E-01  2.456658596000E-01  3.742652674000E-01
  17   7     8.922112533000E-01  2.048564511000E-01  4.533949819000E-01
  18   8     9.997412677000E-01  2.763161536000E-01  4.985748992000E-01
  19   8     9.146610042000E-01  9.989622970000E-02  4.736446003000E-01

 *******************************************************************************

 << INFORMATION >>: FROM NOW ON, ALL COORDINATES REFER TO THE PRIMITIVE CELL

 *******************************************************************************

 LATTICE PARAMETERS  (ANGSTROMS AND DEGREES) - PRIMITIVE CELL
       A          B          C         ALPHA     BETA     GAMMA        VOLUME
    8.09876    7.87987    8.09876   118.54200  88.89187 124.73991    349.443200

 COORDINATES OF THE EQUIVALENT ATOMS (FRACTIONAL UNITS)

 N. ATOM EQUIV AT. N.          X                  Y                  Z

   1   1   1    6 C    -4.54098768600E-01 -3.37914796800E-01 -2.32643423600E-01
   2   1   2    6 C    -1.05271373200E-01  1.62085203200E-01 -3.83816028200E-01

   3   2   1    6 C     4.46821536600E-01 -2.90214355400E-01 -3.27743259600E-01
   4   2   2    6 C     3.75289042000E-02  2.09785644600E-01 -2.37035892000E-01

   5   3   1    6 C    -3.17548677100E-01 -1.54674401300E-01 -2.89538114000E-02
   6   3   2    6 C    -1.25720589900E-01  3.45325598700E-01 -3.37125724200E-01

   7   4   1    1 H    -2.46015046800E-01 -1.90432011900E-01  3.90437751000E-02
   8   4   2    1 H    -2.29475787000E-01  3.09567988100E-01 -4.44416965100E-01

   9   5   1    7 N    -4.85348769700E-01  4.44825992500E-01 -3.36632571000E-01
  10   5   2    7 N    -2.18541436500E-01 -5.51740075000E-02  4.30174762200E-01

  11   6   1    1 H    -4.38836046500E-01  4.03917840300E-01 -2.60034075800E-01
  12   6   2    1 H    -3.36048083900E-01 -9.60821597000E-02  3.42753886800E-01

  13   7   1    1 H     4.15786222900E-01  3.10838780300E-01 -4.76644087400E-01
  14   7   2    1 H    -2.12517132300E-01 -1.89161219700E-01  3.95052557400E-01

  15   8   1    6 C     4.85661358200E-01 -6.43342276000E-02 -2.17083098800E-01
  16   8   2    6 C     1.52748871200E-01  4.35665772400E-01 -4.99955858000E-02

  17   9   1    1 H     4.14769229700E-01 -2.62449323000E-02 -2.82899322800E-01
  18   9   2    1 H     2.56654390500E-01  4.73755067700E-01  5.89858380000E-02

  19  10   1    6 C     3.01950214900E-01 -4.84224866600E-01  4.56156291700E-01
  20  10   2    6 C     5.96188417000E-02  1.57751334000E-02 -2.86175081500E-01

  21  11   1    1 H     3.86467168400E-01  4.78783187900E-01  3.60482743900E-01
  22  11   2    1 H     1.18300444000E-01 -2.12168121000E-02 -4.07683980500E-01

  23  12   1    1 H     1.72534542800E-01  3.40200720200E-01  4.31623285600E-01
  24  12   2    1 H    -9.14225654000E-02 -1.59799279800E-01 -3.32333822600E-01

  25  13   1    1 H     2.35360186400E-01 -4.22089832700E-01  4.10915598300E-01
  26  13   2    1 H     1.66994569000E-01  7.79101673000E-02 -1.57450019100E-01

  27  14   1    6 C    -2.80169061700E-01  6.95250096000E-02  7.93464407000E-02
  28  14   2    6 C    -9.82143110000E-03 -4.30474990400E-01 -1.50305928700E-01

  29  15   1    1 H    -1.80420591500E-01  2.04117892500E-01  2.27751905000E-01
  30  15   2    1 H    -2.36340125000E-02 -2.95882107500E-01 -1.15461516000E-01

  31  16   1    6 C    -3.80068873000E-01  1.13446202400E-01 -1.51532054000E-02
  32  16   2    6 C     1.28599407800E-01 -3.86553797600E-01 -6.48492460000E-03

  33  17   1    7 N    -3.41748567000E-01  3.45606235200E-01  9.70677044000E-02
  34  17   2    7 N     2.48538530800E-01 -1.54393764800E-01  1.87354802200E-01

  35  18   1    8 O    -2.25108947200E-01  4.98316166900E-01  2.76057421300E-01
  36  18   2    8 O     2.22258745600E-01 -1.68383310000E-03  2.23425114100E-01

  37  19   1    8 O    -4.26459170000E-01  3.88305604500E-01  1.45572339000E-02
  38  19   2    8 O     3.73748370600E-01 -1.11694395500E-01  3.14764774500E-01

 NUMBER OF SYMMETRY OPERATORS         :    2
 *******************************************************************************
 * GEOMETRY EDITING - INPUT COORDINATES ARE GIVEN IN ANGSTROM         
 *******************************************************************************

 GEOMETRY NOW FULLY CONSISTENT WITH THE GROUP
 INFORMATION **** NEW DEFAULT **** FINALRUN 4 FOR GEOMETRY OPTIMIZATIONS
 INFORMATION **** NEW DEFAULT **** OPTGEOM OPTIMIZES BOTH ATOMIC COORDINATES AND CELL PARAMETERS
 INFORMATION **** NEW DEFAULT **** TOL. ON ENERGY TO REDEFINE REF. GEOMETRY: 10**-3
 INFORMATION **** ATOMONLY **** ONLY ATOMIC COORDINATES ARE OPTIMIZED

 IMPORTANT INFORMATION:
 THE COORDINATE SYSTEM ADOPTED IN THE OPTIMIZATION IS NOT IN
 GENERAL HOMOGENEOUS UNITS. FOR THIS REASON THE GRADIENT AND 
 HESSIAN MATRIX IN TERMS OF THIS SYSTEM ARE GIVEN WITHOUT
 UNITS. FOR MORE DETAILS SEE THE MANUAL.

 *******************************************************************************
 ATOMIC POSITIONS OPTIMIZATION CONTROL

 INITIAL TRUST RADIUS         0.50000 MAXIMUM TRUST RADIUS               4.00000
 MAXIMUM GRADIENT COMPONENT   0.00045 MAXIMUM DISPLACEMENT COMPONENT     0.00180
 R.M.S. OF GRADIENT COMPONENT 0.00030 R.M.S. OF DISPLACEMENT COMPONENTS  0.00120
 THRESHOLD ON ENERGY CHANGE 0.100E-06 EXTRAPOLATING POLYNOMIAL ORDER           2
 MAXIMUM ALLOWED NUMBER OF STEPS  100 SORTING OF ENERGY POINTS:               NO
 ANALYTICAL  GRADIENT                 HESSIAN UPDATING                      BFGS
 STEP SIZE NUMERICAL GRADIENT 0.00100
 INITIAL HESSIAN MATRIX: SCHLEGEL MODEL 2
 *******************************************************************************


 GCALCO - MAX INDICES DIRECT LATTICE VECTOR    14    17    13
 NO.OF VECTORS CREATED 6999 STARS 1844 RMAX   157.52952 BOHR

 GEOMETRY FOR WAVE FUNCTION - DIMENSIONALITY OF THE SYSTEM    3
 (NON PERIODIC DIRECTION: LATTICE PARAMETER FORMALLY SET TO 500)
 *******************************************************************************
 LATTICE PARAMETERS (ANGSTROMS AND DEGREES) - BOHR = 0.5291772083 ANGSTROM
 PRIMITIVE CELL - CENTRING CODE 6/0 VOLUME=   349.443200 - DENSITY  1.445 g/cm^3
         A              B              C           ALPHA      BETA       GAMMA 
     8.09876267     7.87987281     8.09876267   118.542000  88.891869 124.739910
 *******************************************************************************
 ATOMS IN THE ASYMMETRIC UNIT   19 - ATOMS IN THE UNIT CELL:   38
     ATOM              X/A                 Y/B                 Z/C    
 *******************************************************************************
   1 T   6 C    -4.540987686000E-01 -3.379147968000E-01 -2.326434236000E-01
   2 F   6 C    -1.052713732000E-01  1.620852032000E-01 -3.838160282000E-01
   3 T   6 C     4.468215366000E-01 -2.902143554000E-01 -3.277432596000E-01
   4 F   6 C     3.752890420000E-02  2.097856446000E-01 -2.370358920000E-01
   5 T   6 C    -3.175486771000E-01 -1.546744013000E-01 -2.895381140000E-02
   6 F   6 C    -1.257205899000E-01  3.453255987000E-01 -3.371257242000E-01
   7 T   1 H    -2.460150468000E-01 -1.904320119000E-01  3.904377510000E-02
   8 F   1 H    -2.294757870000E-01  3.095679881000E-01 -4.444169651000E-01
   9 T   7 N    -4.853487697000E-01  4.448259925000E-01 -3.366325710000E-01
  10 F   7 N    -2.185414365000E-01 -5.517400750000E-02  4.301747622000E-01
  11 T   1 H    -4.388360465000E-01  4.039178403000E-01 -2.600340758000E-01
  12 F   1 H    -3.360480839000E-01 -9.608215970000E-02  3.427538868000E-01
  13 T   1 H     4.157862229000E-01  3.108387803000E-01 -4.766440874000E-01
  14 F   1 H    -2.125171323000E-01 -1.891612197000E-01  3.950525574000E-01
  15 T   6 C     4.856613582000E-01 -6.433422760000E-02 -2.170830988000E-01
  16 F   6 C     1.527488712000E-01  4.356657724000E-01 -4.999558580000E-02
  17 T   1 H     4.147692297000E-01 -2.624493230000E-02 -2.828993228000E-01
  18 F   1 H     2.566543905000E-01  4.737550677000E-01  5.898583800000E-02
  19 T   6 C     3.019502149000E-01 -4.842248666000E-01  4.561562917000E-01
  20 F   6 C     5.961884170000E-02  1.577513340000E-02 -2.861750815000E-01
  21 T   1 H     3.864671684000E-01  4.787831879000E-01  3.604827439000E-01
  22 F   1 H     1.183004440000E-01 -2.121681210000E-02 -4.076839805000E-01
  23 T   1 H     1.725345428000E-01  3.402007202000E-01  4.316232856000E-01
  24 F   1 H    -9.142256540000E-02 -1.597992798000E-01 -3.323338226000E-01
  25 T   1 H     2.353601864000E-01 -4.220898327000E-01  4.109155983000E-01
  26 F   1 H     1.669945690000E-01  7.791016730000E-02 -1.574500191000E-01
  27 T   6 C    -2.801690617000E-01  6.952500960000E-02  7.934644070000E-02
  28 F   6 C    -9.821431100000E-03 -4.304749904000E-01 -1.503059287000E-01
  29 T   1 H    -1.804205915000E-01  2.041178925000E-01  2.277519050000E-01
  30 F   1 H    -2.363401250000E-02 -2.958821075000E-01 -1.154615160000E-01
  31 T   6 C    -3.800688730000E-01  1.134462024000E-01 -1.515320540000E-02
  32 F   6 C     1.285994078000E-01 -3.865537976000E-01 -6.484924600000E-03
  33 T   7 N    -3.417485670000E-01  3.456062352000E-01  9.706770440000E-02
  34 F   7 N     2.485385308000E-01 -1.543937648000E-01  1.873548022000E-01
  35 T   8 O    -2.251089472000E-01  4.983161669000E-01  2.760574213000E-01
  36 F   8 O     2.222587456000E-01 -1.683833100000E-03  2.234251141000E-01
  37 T   8 O    -4.264591700000E-01  3.883056045000E-01  1.455723390000E-02
  38 F   8 O     3.737483706000E-01 -1.116943955000E-01  3.147647745000E-01

 TRANSFORMATION MATRIX PRIMITIVE-CRYSTALLOGRAPHIC CELL
  0.0000  1.0000  1.0000  1.0000  0.0000  1.0000  1.0000  1.0000  0.0000

 *******************************************************************************
 CRYSTALLOGRAPHIC CELL (VOLUME=        698.88639999)
         A              B              C           ALPHA      BETA       GAMMA 
     8.16690000    11.56360000     7.41280000    90.000000  93.312000  90.000000

 COORDINATES IN THE CRYSTALLOGRAPHIC CELL
     ATOM              X/A                 Y/B                 Z/C    
 *******************************************************************************
   1 T   6 C    -5.822972590000E-02 -1.744136977000E-01 -2.796850709000E-01
   2 F   6 C    -5.822972590000E-02 -3.255863023000E-01  2.203149291000E-01
   3 T   6 C    -3.238957580000E-02 -2.953536838000E-01 -2.578247796000E-01
   4 F   6 C    -3.238957580000E-02 -2.046463162000E-01  2.421752204000E-01
   5 T   6 C     6.696023220000E-02 -9.591404360000E-02 -2.216346335000E-01
   6 F   6 C    -4.330397678000E-01  9.591404360000E-02 -2.216346335000E-01
   7 T   1 H     4.731340500000E-02 -8.269629900000E-03 -2.377454169000E-01
   8 F   1 H    -4.526865950000E-01  8.269629900000E-03 -2.377454169000E-01
   9 T   7 N    -2.032289044000E-01 -1.334036666000E-01 -3.519451031000E-01
  10 F   7 N     2.967710956000E-01  1.334036666000E-01 -3.519451031000E-01
  11 T   1 H    -2.086400945000E-01 -5.139398130000E-02 -3.874420652000E-01
  12 F   1 H     2.913599055000E-01  5.139398130000E-02 -3.874420652000E-01
  13 T   1 H     2.092042350000E-01  3.141516776000E-01  1.016345453000E-01
  14 F   1 H     2.092042350000E-01  1.858483224000E-01 -3.983654547000E-01
  15 T   6 C     1.164606577000E-01 -3.335437565000E-01 -1.807948853000E-01
  16 F   6 C     1.164606577000E-01 -1.664562435000E-01  3.192051147000E-01
  17 T   1 H    -3.619567424000E-01  7.905741960000E-02  3.357118101000E-01
  18 F   1 H     1.380432576000E-01 -7.905741960000E-02  3.357118101000E-01
  19 T   6 C     3.349906051000E-01  1.211656866000E-01  1.807845283000E-01
  20 F   6 C    -1.650093949000E-01 -1.211656866000E-01  1.807845283000E-01
  21 T   1 H     2.263993817000E-01  1.340833622000E-01  2.523838062000E-01
  22 F   1 H    -2.736006183000E-01 -1.340833622000E-01  2.523838062000E-01
  23 T   1 H     2.996447315000E-01  1.319785541000E-01  4.055598870000E-02
  24 F   1 H    -2.003552685000E-01 -1.319785541000E-01  4.055598870000E-02
  25 T   1 H     3.767327896000E-01  3.418280870000E-02  2.011773777000E-01
  26 F   1 H    -1.232672104000E-01 -3.418280870000E-02  2.011773777000E-01
  27 T   6 C     2.145202560000E-01 -1.351738153000E-01 -1.449952464000E-01
  28 F   6 C    -2.854797440000E-01  1.351738153000E-01 -1.449952464000E-01
  29 T   1 H     3.061451945000E-01 -7.839328950000E-02 -1.020273020000E-01
  30 F   1 H    -1.938548055000E-01  7.839328950000E-02 -1.020273020000E-01
  31 T   6 C     2.391809350000E-01 -2.543341404000E-01 -1.257347326000E-01
  32 F   6 C    -2.608190650000E-01  2.543341404000E-01 -1.257347326000E-01
  33 T   7 N    -1.077887467000E-01  2.048564511000E-01  4.533949819000E-01
  34 F   7 N    -1.077887467000E-01  2.951435489000E-01 -4.660501810000E-02
  35 T   8 O     4.997412677000E-01 -2.236838464000E-01 -1.425100800000E-03
  36 F   8 O    -2.587322999999E-04  2.236838464000E-01 -1.425100800000E-03
  37 T   8 O    -8.533899580000E-02  9.989622970000E-02  4.736446003000E-01
  38 F   8 O    -8.533899580000E-02  4.001037703000E-01 -2.635539970000E-02

 T = ATOM BELONGING TO THE ASYMMETRIC UNIT

 ****    2 SYMMOPS - TRANSLATORS IN FRACTIONAL UNITS
 **** MATRICES AND TRANSLATORS IN THE CRYSTALLOGRAPHIC REFERENCE FRAME
   V INV                    ROTATION MATRICES                   TRANSLATORS
   1   1  1.00  0.00  0.00  0.00  1.00  0.00  0.00  0.00  1.00  0.00  0.00  0.00
   2   2  0.00  1.00 -1.00  0.00  1.00 -0.00 -1.00  1.00 -0.00  0.00  0.50  0.50

 DIRECT LATTICE VECTORS CARTESIAN COMPONENTS (ANGSTROM)
          X                    Y                    Z
  -0.429758028425E+01   0.578180000000E+01   0.370020934291E+01
   0.386931971575E+01  -0.578180000000E+01   0.370020934291E+01
   0.429758028425E+01   0.578180000000E+01  -0.370020934291E+01


 CARTESIAN COORDINATES - PRIMITIVE CELL
 *******************************************************************************
 *      ATOM          X(ANGSTROM)         Y(ANGSTROM)         Z(ANGSTROM)
 *******************************************************************************
    1     6 C    -3.557782609902E-01 -2.016850234724E+00 -2.069786624834E+00
    2     6 C    -5.699085452365E-01 -3.764949765276E+00  1.630422718077E+00
    3     6 C    -1.541062399181E-01 -3.415351857990E+00 -1.908011316620E+00
    4     6 C    -3.682365241643E-01 -2.366448142010E+00  1.792198026291E+00
    5     6 C     6.417748944945E-01 -1.109111634573E+00 -1.640189083179E+00
    6     6 C    -3.441675105505E+00  1.109111634573E+00 -1.640189083179E+00
    7     1 H     4.882208346926E-01 -9.562669231164E-02 -1.759415625695E+00
    8     1 H    -3.595229165307E+00  9.562669231164E-02 -1.759415625695E+00
    9     7 N    -1.509025929413E+00 -1.542626639096E+00 -2.604541117365E+00
   10     7 N     2.574424070587E+00  1.542626639096E+00 -2.604541117365E+00
   11     1 H    -1.538016628672E+00 -5.942994421607E-01 -2.867233498980E+00
   12     1 H     2.545433371328E+00  5.942994421607E-01 -2.867233498980E+00
   13     1 H     1.665023998673E+00  3.632724339095E+00  7.521381881632E-01
   14     1 H     1.879154282919E+00  2.149075660905E+00 -2.948071154748E+00
   15     6 C     1.028549865729E+00 -3.856966582663E+00 -1.337957847475E+00
   16     6 C     8.144195814830E-01 -1.924833417337E+00  2.362251495436E+00
   17     1 H    -3.099836650150E+00  9.141883772866E-01  2.484407952515E+00
   18     1 H     9.836133498504E-01 -9.141883772866E-01  2.484407952515E+00
   19     6 C     2.658411887927E+00  1.401111533568E+00  1.337881201339E+00
   20     6 C    -1.425038112073E+00 -1.401111533568E+00  1.337881201339E+00
   21     1 H     1.740895078084E+00  1.550486367136E+00  1.867745835402E+00
   22     1 H    -2.342554921916E+00 -1.550486367136E+00  1.867745835402E+00
   23     1 H     2.429800026911E+00  1.526147208191E+00  3.001312965975E-01
   24     1 H    -1.653649973089E+00 -1.526147208191E+00  3.001312965975E-01
   25     1 H     2.990582681243E+00  3.952763266833E-01  1.488796825096E+00
   26     1 H    -1.092867318757E+00 -3.952763266833E-01  1.488796825096E+00
   27     6 C     1.814061225378E+00 -1.563095930603E+00 -1.073025530814E+00
   28     6 C    -2.269388774622E+00  1.563095930603E+00 -1.073025530814E+00
   29     1 H     2.543951459318E+00 -9.065086424622E-01 -7.550447521849E-01
   30     1 H    -1.539498540682E+00  9.065086424622E-01 -7.550447521849E-01
   31     6 C     2.007214006114E+00 -2.941018265929E+00 -9.304896645900E-01
   32     6 C    -2.076235993886E+00  2.941018265929E+00 -9.304896645900E-01
   33     7 N    -1.074471108124E+00  2.368878057940E+00  3.355312696111E+00
   34     7 N    -8.603408238781E-01  3.412921942060E+00 -3.448966468003E-01
   35     8 O     4.081947273658E+00 -2.586590526231E+00 -1.054634258950E-02
   36     8 O    -1.502726342102E-03  2.586590526231E+00 -1.054634258950E-02
   37     8 O    -8.997983505869E-01  1.155160041759E+00  3.505168350499E+00
   38     8 O    -6.856680663407E-01  4.626639958241E+00 -1.950409924122E-01

 *******************************************************************************
 LOCAL ATOMIC FUNCTIONS BASIS SET
 *******************************************************************************
   ATOM   X(AU)   Y(AU)   Z(AU)  N. TYPE  EXPONENT  S COEF   P COEF   D/F/G COEF
 *******************************************************************************
   1 C   -0.672  -3.811  -3.911
                                  1 S  
                                         3.048E+03 1.835E-03 0.000E+00 0.000E+00
                                         4.574E+02 1.404E-02 0.000E+00 0.000E+00
                                         1.039E+02 6.884E-02 0.000E+00 0.000E+00
                                         2.921E+01 2.322E-01 0.000E+00 0.000E+00
                                         9.287E+00 4.679E-01 0.000E+00 0.000E+00
                                         3.164E+00 3.623E-01 0.000E+00 0.000E+00
                             2-   5 SP 
                                         7.868E+00-1.193E-01 6.900E-02 0.000E+00
                                         1.881E+00-1.609E-01 3.164E-01 0.000E+00
                                         5.442E-01 1.143E+00 7.443E-01 0.000E+00
                             6-   9 SP 
                                         1.687E-01 1.000E+00 1.000E+00 0.000E+00
                            10-  14 D  
                                         7.700E-01 0.000E+00 0.000E+00 1.000E+00
   2 C   -1.077  -7.115   3.081
   3 C   -0.291  -6.454  -3.606
   4 C   -0.696  -4.472   3.387
   5 C    1.213  -2.096  -3.100
   6 C   -6.504   2.096  -3.100
   7 H    0.923  -0.181  -3.325
                                 85 S  
                                         1.873E+01 3.349E-02 0.000E+00 0.000E+00
                                         2.825E+00 2.347E-01 0.000E+00 0.000E+00
                                         6.401E-01 8.138E-01 0.000E+00 0.000E+00
                                 86 S  
                                         1.613E-01 1.000E+00 0.000E+00 0.000E+00
                            87-  89 P  
                                         1.100E+00 0.000E+00 1.000E+00 0.000E+00
   8 H   -6.794   0.181  -3.325
   9 N   -2.852  -2.915  -4.922
                                 95 S  
                                         4.174E+03 1.835E-03 0.000E+00 0.000E+00
                                         6.275E+02 1.400E-02 0.000E+00 0.000E+00
                                         1.429E+02 6.859E-02 0.000E+00 0.000E+00
                                         4.023E+01 2.322E-01 0.000E+00 0.000E+00
                                         1.282E+01 4.691E-01 0.000E+00 0.000E+00
                                         4.390E+00 3.605E-01 0.000E+00 0.000E+00
                            96-  99 SP 
                                         1.163E+01-1.150E-01 6.758E-02 0.000E+00
                                         2.716E+00-1.691E-01 3.239E-01 0.000E+00
                                         7.722E-01 1.146E+00 7.409E-01 0.000E+00
                           100- 103 SP 
                                         2.120E-01 1.000E+00 1.000E+00 0.000E+00
                           104- 108 D  
                                         1.190E+00 0.000E+00 0.000E+00 1.000E+00
  10 N    4.865   2.915  -4.922
  11 H   -2.906  -1.123  -5.418
  12 H    4.810   1.123  -5.418
  13 H    3.146   6.865   1.421
  14 H    3.551   4.061  -5.571
  15 C    1.944  -7.289  -2.528
  16 C    1.539  -3.637   4.464
  17 H   -5.858   1.728   4.695
  18 H    1.859  -1.728   4.695
  19 C    5.024   2.648   2.528
  20 C   -2.693  -2.648   2.528
  21 H    3.290   2.930   3.530
  22 H   -4.427  -2.930   3.530
  23 H    4.592   2.884   0.567
  24 H   -3.125  -2.884   0.567
  25 H    5.651   0.747   2.813
  26 H   -2.065  -0.747   2.813
  27 C    3.428  -2.954  -2.028
  28 C   -4.289   2.954  -2.028
  29 H    4.807  -1.713  -1.427
  30 H   -2.909   1.713  -1.427
  31 C    3.793  -5.558  -1.758
  32 C   -3.924   5.558  -1.758
  33 N   -2.030   4.477   6.341
  34 N   -1.626   6.449  -0.652
  35 O    7.714  -4.888  -0.020
                                333 S  
                                         5.485E+03 1.831E-03 0.000E+00 0.000E+00
                                         8.252E+02 1.395E-02 0.000E+00 0.000E+00
                                         1.880E+02 6.845E-02 0.000E+00 0.000E+00
                                         5.296E+01 2.327E-01 0.000E+00 0.000E+00
                                         1.690E+01 4.702E-01 0.000E+00 0.000E+00
                                         5.800E+00 3.585E-01 0.000E+00 0.000E+00
                           334- 337 SP 
                                         1.554E+01-1.108E-01 7.087E-02 0.000E+00
                                         3.600E+00-1.480E-01 3.398E-01 0.000E+00
                                         1.014E+00 1.131E+00 7.272E-01 0.000E+00
                           338- 341 SP 
                                         2.700E-01 1.000E+00 1.000E+00 0.000E+00
                           342- 346 D  
                                         9.900E-01 0.000E+00 0.000E+00 1.000E+00
  36 O   -0.003   4.888  -0.020
  37 O   -1.700   2.183   6.624
  38 O   -1.296   8.743  -0.369
 INFORMATION **** SET_MPP **** PCRYSTAL CALCULATION
 INFORMATION **** READM2 **** NEW DEFAULT: FOCK/KS MATRIX MIXING SET TO 30 %
 INFORMATION **** READM2 **** NEW DEFAULT: FULL DIRECT SCF MODE
 INFORMATION **** READM2 **** NEW DEFAULT: COULOMB BIPOLAR BUFFER SET TO 32 Mb
 INFORMATION **** READM2 **** NEW DEFAULT: EXCHANGE BIPOLAR BUFFER SET TO 32 Mb

 *******************************************************************************
 NEW DEFAULT: DFT INTEGRATION GRID INCREASED TO XLGRID
 NEW DEFAULT: LEVEL SHIFTER 6 0
 IF THE SYSTEM IS A METAL USE KEYWORD NOSHIFT
 *******************************************************************************

 INFORMATION **** MULPOPAN ****  MULLIKEN POPULATION ANALYSIS AT THE END OF SCF
 INFORMATION **** READM2 **** FULL DIRECT SCF (MONO AND BIEL INT) SELECTED
 INFORMATION **** TOLINTEG **** COULOMB AND EXCHANGE SERIES TOLERANCES MODIFIED
 INFORMATION **** LEVSHIFT **** LEVEL SHIFTER ACTIVE
 INFORMATION **** MAXCYCLE **** MAX NUMBER OF SCF CYCLES SET TO         300
 *******************************************************************************
 N. OF ATOMS PER CELL        38  COULOMB OVERLAP TOL         (T1) 10**   -7
 NUMBER OF SHELLS           136  COULOMB PENETRATION TOL     (T2) 10**   -7
 NUMBER OF AO               388  EXCHANGE OVERLAP TOL        (T3) 10**   -7
 N. OF ELECTRONS PER CELL   160  EXCHANGE PSEUDO OVP (F(G))  (T4) 10**   -7
 CORE ELECTRONS PER CELL     44  EXCHANGE PSEUDO OVP (P(G))  (T5) 10**  -21
 N. OF SYMMETRY OPERATORS     2  POLE ORDER IN MONO ZONE                  4
 *******************************************************************************
 TYPE OF CALCULATION :  RESTRICTED CLOSED SHELL
 KOHN-SHAM HAMILTONIAN

 (EXCHANGE)[CORRELATION] FUNCTIONAL:(BECKE 88)[LEE-YANG-PARR]

 NON-LOCAL WEIGHTING FACTOR (EXCHANGE) =           0.9000
 NON-LOCAL WEIGHTING FACTOR [CORRELATION] =        0.8100

 HYBRID EXCHANGE - PERCENTAGE OF FOCK EXCHANGE    20.0000
 EIGENVALUE LEVEL SHIFTING OF  0.600 HARTREE
 LOCKING - FERMI ENERGY ALTERED BY LEVEL SHIFTER

 CAPPA:IS1  6;IS2  6;IS3  6; K PTS MONK NET  68; SYMMOPS:K SPACE   4;G SPACE   2

 *******************************************************************************
 MAX NUMBER OF SCF CYCLES     300  CONVERGENCE ON DELTAP        10**-16
 WEIGHT OF F(I) IN F(I+1)      30% CONVERGENCE ON ENERGY        10**- 7
 EIGENVALUE LEVEL SHIFTING OF  0.600 HARTREE
 LOCKING - FERMI ENERGY ALTERED BY LEVEL SHIFTER
 SHRINK. FACT.(MONKH.)    6  6  6  NUMBER OF K POINTS IN THE IBZ     68
 SHRINKING FACTOR(GILAT NET)    6  NUMBER OF K POINTS(GILAT NET)     68
 *******************************************************************************
 *** K POINTS COORDINATES (OBLIQUE COORDINATES IN UNITS OF IS =  6)
   1-R(  0  0  0)   2-C(  1  0  0)   3-C(  2  0  0)   4-R(  3  0  0)
   5-C(  0  1  0)   6-C(  1  1  0)   7-C(  2  1  0)   8-C(  3  1  0)
   9-C(  4  1  0)  10-C(  5  1  0)  11-C(  0  2  0)  12-C(  1  2  0)
  13-C(  2  2  0)  14-C(  3  2  0)  15-C(  4  2  0)  16-C(  5  2  0)
  17-R(  0  3  0)  18-C(  1  3  0)  19-C(  2  3  0)  20-R(  3  3  0)
  21-C(  1  0  1)  22-C(  2  0  1)  23-C(  3  0  1)  24-C(  4  0  1)
  25-C(  5  0  1)  26-C(  1  1  1)  27-C(  2  1  1)  28-C(  3  1  1)
  29-C(  4  1  1)  30-C(  5  1  1)  31-C(  1  2  1)  32-C(  2  2  1)
  33-C(  3  2  1)  34-C(  4  2  1)  35-C(  5  2  1)  36-C(  2  3  1)
  37-C(  3  3  1)  38-C(  4  3  1)  39-C(  5  3  1)  40-C(  2  4  1)
  41-C(  3  4  1)  42-C(  4  4  1)  43-C(  5  4  1)  44-C(  1  5  1)
  45-C(  2  5  1)  46-C(  3  5  1)  47-C(  4  5  1)  48-C(  5  5  1)
  49-C(  2  0  2)  50-C(  3  0  2)  51-C(  4  0  2)  52-C(  2  1  2)
  53-C(  3  1  2)  54-C(  4  1  2)  55-C(  3  2  2)  56-C(  4  2  2)
  57-C(  2  3  2)  58-C(  3  3  2)  59-C(  4  3  2)  60-C(  2  4  2)
  61-C(  3  4  2)  62-C(  4  4  2)  63-C(  3  5  2)  64-C(  4  5  2)
  65-R(  3  0  3)  66-C(  3  1  3)  67-C(  3  2  3)  68-R(  3  3  3)

 DIRECT LATTICE VECTORS COMPON. (A.U.)     RECIP. LATTICE VECTORS COMPON. (A.U.) 
        X            Y            Z              X            Y            Z
   -8.1212498   10.9260186    6.9923823      0.0000000    0.2875332    0.4492879
    7.3119546  -10.9260186    6.9923823      0.4071212    0.0000000    0.4728479
    8.1212498   10.9260186   -6.9923823      0.4071212    0.2875332    0.0235600

 DISK SPACE FOR EIGENVECTORS (FTN 10)    19570720 REALS

 SYMMETRY ADAPTION OF THE BLOCH FUNCTIONS ENABLED
 TTTTTTTTTTTTTTTTTTTTTTTTTTTTTT gordsh1     TELAPSE        0.80 TCPU        0.20

 MATRIX SIZE: P(G) 1011900, F(G)   94236, P(G) IRR  257642, F(G) IRR   47785
 MAX G-VECTOR INDEX FOR 1- AND 2-ELECTRON INTEGRALS  83

 TTTTTTTTTTTTTTTTTTTTTTTTTTTTTT INPUT       TELAPSE        1.81 TCPU        1.21

 NEIGHBORS OF THE NON-EQUIVALENT ATOMS

 N = NUMBER OF NEIGHBORS AT DISTANCE R
    ATOM  N     R/ANG      R/AU   NEIGHBORS (ATOM LABELS AND CELL INDICES)

.....

 TTTTTTTTTTTTTTTTTTTTTTTTTTTTTT NUMDFT      TELAPSE      520.06 TCPU      492.74
 CYC  24 ETOT(AU) -1.062296384795E+03 DETOT -7.20E-08 tst  5.19E-08 PX  2.29E-05
 TTTTTTTTTTTTTTTTTTTTTTTTTTTTTT FDIK        TELAPSE      525.87 TCPU      498.52
 INSULATING STATE - LEVEL SHIFTER    0.60 au
 TOP OF VALENCE BANDS -    BAND     80; K   35; EIG -8.0016560E-01 AU
 TOP OF VALENCE BANDS -    BAND     80; K    1; EIG -8.0648080E-01 AU
 BOTTOM OF VIRTUAL BANDS - BAND     81; K   20; EIG -8.4279407E-02 AU
 BOTTOM OF VIRTUAL BANDS - BAND     81; K    1; EIG -7.9799423E-02 AU
 TTTTTTTTTTTTTTTTTTTTTTTTTTTTTT PDIG        TELAPSE      525.99 TCPU      498.64
 CHARGE NORMALIZATION FACTOR   1.00000000
 TOTAL ATOMIC CHARGES:
   5.8072277   5.8072277   5.8954722   5.8954722   6.1376070   6.1376070
   0.8855129   0.8855129   7.5735414   7.5735414   0.7118968   0.7118968
   0.7081072   0.7081072   6.1360885   6.1360885   0.8824140   0.8824140
   6.4140789   6.4140789   0.8718977   0.8718977   0.8603868   0.8603868
   0.8685026   0.8685026   6.0950154   6.0950154   0.8785207   0.8785207
   5.7931693   5.7931693   6.5955393   6.5955393   8.4370939   8.4370939
   8.4479275   8.4479275
 TTTTTTTTTTTTTTTTTTTTTTTTTTTTTT MOQGAD      TELAPSE      526.00 TCPU      498.65
 TTTTTTTTTTTTTTTTTTTTTTTTTTTTTT SHELLX2     TELAPSE      535.67 TCPU      508.24
 +++ ENERGIES IN A.U. +++
 ::: EXT EL-POLE                                  -2.0955890044681E+03
 ::: EXT EL-SPHEROPOLE                             1.9334535928742E+01
 ::: BIELET ZONE E-E                               2.4280091514875E+03
 ::: TOTAL E-E                                     3.5175468294809E+02
 ::: TOTAL E-N + N-E                              -2.1899304061322E+03
 ::: TOTAL N-N                                    -1.6501535822704E+02
 ::: KINETIC ENERGY                                1.0570363561321E+03
 ::: PSEUDO TOTAL   ENERGY                        -9.4615472527906E+02
 ::: VIRIAL COEFFICIENT                            1.0553524982624E+00
 TTTTTTTTTTTTTTTTTTTTTTTTTTTTTT MONMO3      TELAPSE      537.57 TCPU      510.14
 NUMERICALLY INTEGRATED DENSITY    160.0000158136
 TTTTTTTTTTTTTTTTTTTTTTTTTTTTTT NUMDFT      TELAPSE      539.13 TCPU      511.70
 CYC  25 ETOT(AU) -1.062296384845E+03 DETOT -5.00E-08 tst  3.56E-08 PX  2.29E-05

 == SCF ENDED - CONVERGENCE ON ENERGY      E(AU) -1.0622963848451E+03 CYCLES  25


 ENERGY EXPRESSION=HARTREE+FOCK EXCH*0.20000+(BECKE      EXCH)*0.80000+LYP        CORR


 TOTAL ENERGY(DFT)(AU)( 25) -1.0622963848451E+03 DE-5.0E-08 tester 3.6E-08
 TTTTTTTTTTTTTTTTTTTTTTTTTTTTTT EDFT        TELAPSE      539.14 TCPU      511.70

 *******************************************************************************
 *                             FORCE CALCULATION                               *
 *******************************************************************************

 TTTTTTTTTTTTTTTTTTTTTTTTTTTTTT NUMDFG      TELAPSE      550.20 TCPU      522.76
 INFORMATION **** EXCPOG **** EXCH. BIPO BUFFER LENGTH (WORDS) =     6975900
 INFORMATION **** GENPOG **** BIPO BUFFER LENGTH (WORDS) =     1217000
 TTTTTTTTTTTTTTTTTTTTTTTTTTTTTT SHELXG      TELAPSE      600.36 TCPU      572.75

 CARTESIAN FORCES IN HARTREE/BOHR (ANALYTICAL)
   ATOM                     X                   Y                   Z
   1   6            -3.218463800234E-03  1.034454383446E-03 -6.554975062489E-04
   2   6            -3.218463800237E-03 -1.034454383424E-03 -6.554975062434E-04
   3   6             2.414811895664E-03 -3.033510190038E-03  1.600584432519E-03
   4   6             2.414811895658E-03  3.033510190046E-03  1.600584432511E-03
   5   6             9.253516368835E-03 -3.808294846629E-02  5.777787264527E-03
   6   6             9.253516368856E-03  3.808294846628E-02  5.777787264532E-03
   7   1            -6.535900860813E-03  4.145638806961E-02 -4.776630278196E-03
   8   1            -6.535900860811E-03 -4.145638806961E-02 -4.776630278195E-03
   9   7             2.421999000201E-02 -7.299890636124E-03  1.720996653265E-02
  10   7             2.421999000198E-02  7.299890636125E-03  1.720996653264E-02
  11   1            -3.474213974312E-03  2.266864310126E-02 -8.069532048507E-03
  12   1            -3.474213974315E-03 -2.266864310126E-02 -8.069532048506E-03
  13   1            -2.122519518809E-02 -1.435680821448E-02 -1.003831822530E-02
  14   1            -2.122519518808E-02  1.435680821448E-02 -1.003831822530E-02
  15   6            -9.462666990886E-03  3.838154722011E-02 -6.818756888823E-03
  16   6            -9.462666990902E-03 -3.838154722010E-02 -6.818756888830E-03
  17   1             5.907138833781E-03 -4.007868745740E-02  4.767958573212E-03
  18   1             5.907138833777E-03  4.007868745740E-02  4.767958573211E-03
  19   6             1.343416313494E-02  6.729072642564E-03  3.693676012009E-03
  20   6             1.343416313495E-02 -6.729072642570E-03  3.693676012009E-03
  21   1            -1.518735697745E-02  1.530099002567E-03  9.876222278680E-03
  22   1            -1.518735697745E-02 -1.530099002566E-03  9.876222278681E-03
  23   1            -3.131790628965E-03  2.708765998699E-03 -1.678264584921E-02
  24   1            -3.131790628963E-03 -2.708765998698E-03 -1.678264584921E-02
  25   1             3.263619417070E-03 -1.431654484780E-02  3.389011418028E-03
  26   1             3.263619417069E-03  1.431654484780E-02  3.389011418028E-03
  27   6            -2.934556018632E-02 -2.284638757542E-02 -1.347318890340E-02
  28   6            -2.934556018631E-02  2.284638757541E-02 -1.347318890340E-02
  29   1             2.808260198824E-02  2.595066882518E-02  1.279739738041E-02
  30   1             2.808260198825E-02 -2.595066882518E-02  1.279739738041E-02
  31   6             5.217862177094E-03 -2.005950786250E-03  2.672514543159E-03
  32   6             5.217862177108E-03  2.005950786237E-03  2.672514543169E-03
  33   7            -5.359148109117E-03  5.275758517254E-03 -3.938109887896E-03
  34   7            -5.359148109085E-03 -5.275758517297E-03 -3.938109887885E-03
  35   8             4.669375841258E-03  4.103263613978E-03  1.759204380804E-03
  36   8             4.669375841203E-03 -4.103263613947E-03  1.759204380784E-03
  37   8             4.772170569831E-04 -9.772436721851E-03  1.008356771233E-03
  38   8             4.772170569942E-04  9.772436721864E-03  1.008356771234E-03

 RESULTANT FORCE    -6.140921104958E-13  8.326672684689E-17 -7.005090951751E-13

 SYMMETRY ALLOWED FORCES (ANALYTICAL) (DIRECTION, FORCE)

    1  3.0761100E-03    2 -2.4591445E-03    3 -3.0668236E-03    4 -3.7819139E-03
    5  4.4427800E-03    6  3.6325221E-04    7 -4.2202161E-02    8  3.1830381E-02
    9 -1.8943092E-02   10  4.4232047E-02   11 -3.0775473E-02   12  2.5517596E-02
   13 -1.4679872E-02   14  3.4499956E-02   15  2.4807488E-02   16  2.0118699E-02
   17 -2.1953420E-02   18  1.5598315E-02   19 -5.9224734E-03   20 -1.0258708E-02
   21 -3.5736458E-02   22  4.2285977E-02   23 -3.3259487E-02   24  1.8474584E-02
   25 -4.2567435E-02   26  2.9602011E-02   27 -2.4958376E-02   28 -8.2733619E-04
   29  5.2237496E-03   30  2.1903866E-02   31  1.9100994E-02   32  8.4270104E-03
   33 -1.5440122E-02   34 -4.5210481E-03   35 -2.3246123E-02   36 -3.5561439E-03
   37 -1.4882431E-02   38  1.2448259E-02   39 -7.9718093E-03   40 -9.7783953E-03
   41 -1.5614242E-02   42 -5.7486411E-02   43  1.7387563E-02   44  6.4748042E-03
   45  4.9003854E-02   46 -3.7554452E-03   47  5.6670285E-03   48  4.2255192E-03
   49  7.6562609E-03   50 -9.9181606E-03   51 -4.5100564E-03   52  3.2369791E-03
   53 -8.4409340E-04   54  6.3734594E-03   55 -1.3820313E-02
 TTTTTTTTTTTTTTTTTTTTTTTTTTTTTT TOTGRA      TELAPSE      609.75 TCPU      582.14
 INFORMATION **** opta001 **** GEOMETRY OUTPUT FILE
 CLASSICAL MODEL (SCHLEGEL) USED AS INITIAL HESSIAN MATRIX
 REFERENCE GEOMETRY DEFINED

 MAX GRADIENT      0.057486  THRESHOLD              0.000450 CONVERGED NO
 RMS GRADIENT      0.022137  THRESHOLD              0.000300 CONVERGED NO

 GRADIENT NORM     0.164170  GRADIENT THRESHOLD     0.500000

 EIGENVALUES OF THE ESTIMATED HESSIAN
  0.8553E-04  0.5549E-03  0.8212E-03  0.1003E-02  0.1464E-02  0.1591E-02
  0.2560E-02  0.4559E-02  0.6646E-02  0.8186E-02  0.1357E-01  0.1693E-01
  0.2241E-01  0.3110E-01  0.3513E-01  0.3716E-01  0.4393E-01  0.4971E-01
  0.5454E-01  0.6222E-01  0.6508E-01  0.6973E-01  0.7114E-01  0.7819E-01
  0.9877E-01  0.1092      0.1130      0.1239      0.1384      0.1394    
  0.1477      0.1851      0.2027      0.2497      0.2899      0.3485    
  0.3710      0.4340      0.5475      0.6068      0.7411      0.7722    
  0.9130      0.9536      0.9694       1.026       1.125       1.192    
   1.243       1.327       1.403       1.457       1.520       1.895    
   2.707    
 NEWTON STEP ( 0.5016081818E+01) EXCEEDS TRUST RADIUS ( 0.5000000000E+00)
 LEVEL SHIFT    -0.7486840351E-03

 INITIAL TRUST RADIUS    0.5000000000E+00

 PREDICTED ENERGY CHANGE    -0.154E-01

 INITIAL DISPLACEMENTS
 -0.003490  0.021712 -0.016357  0.008204  0.049121 -0.034087 -0.011220  0.011025
 -0.003901  0.078205 -0.007383  0.020524 -0.029548 -0.016883  0.009503 -0.037049
 -0.072917  0.031292 -0.044629 -0.060745 -0.024314 -0.051180 -0.024767 -0.008306
 -0.098055  0.031187 -0.053489  0.049517  0.110972 -0.068657  0.123873  0.144157
 -0.057117  0.044092  0.112616 -0.134947  0.103176  0.221710 -0.126199  0.024957
  0.046397 -0.035350  0.106917  0.133550  0.017254  0.003528  0.047778 -0.025269
 -0.035637 -0.009024 -0.004770 -0.009507  0.000236 -0.006619 -0.036707
 TTTTTTTTTTTTTTTTTTTTTTTTTTTTTT OPTI        TELAPSE      609.82 TCPU      582.21

 OPTOPTOPTOPTOPTOPTOPTOPTOPTOPTOPTOPTOPTOPTOPTOPTOPTOPTOPTOPTOPTOPTOPTOPTOPTOPT

 STARTING GEOMETRY OPTIMIZATION - INFORMATION ON SCF MOVED TO SCFOUT.LOG
 GEOMETRY OPTIMIZATION INFORMATION STORED IN OPTINFO.DAT

 OPTOPTOPTOPTOPTOPTOPTOPTOPTOPTOPTOPTOPTOPTOPTOPTOPTOPTOPTOPTOPTOPTOPTOPTOPTOPT
 *******************************************************************************
 COORDINATE OPTIMIZATION - POINT    2
 *******************************************************************************
 LATTICE PARAMETERS (ANGSTROMS AND DEGREES) - BOHR = 0.5291772083 ANGSTROM
 PRIMITIVE CELL - CENTRING CODE 6/0 VOLUME=   349.443200 - DENSITY  1.445 g/cm^3
         A              B              C           ALPHA      BETA       GAMMA 
     8.09876267     7.87987281     8.09876267   118.542000  88.891869 124.739910
 *******************************************************************************
 ATOMS IN THE ASYMMETRIC UNIT   19 - ATOMS IN THE UNIT CELL:   38
     ATOM              X/A                 Y/B                 Z/C    
 *******************************************************************************
   1 T   6 C    -4.539211953163E-01 -3.373395669139E-01 -2.335642898734E-01
   2 F   6 C    -1.037752770405E-01  1.626604330861E-01 -3.834183715976E-01
   3 T   6 C     4.479686669099E-01 -2.888340810074E-01 -3.296305808794E-01
   4 F   6 C     4.079649987209E-02  2.111659189926E-01 -2.368027479173E-01
   5 T   6 C    -3.179774774955E-01 -1.543268006355E-01 -2.912816546629E-02
   6 F   6 C    -1.251986351692E-01  3.456731993645E-01 -3.363493231400E-01
   7 T   1 H    -2.424585603358E-01 -1.901857741076E-01  4.034126071249E-02
   8 F   1 H    -2.305270348201E-01  3.098142258924E-01 -4.477272137719E-01
   9 T   7 N    -4.873048992693E-01  4.440889956385E-01 -3.360234846123E-01
  10 F   7 N    -2.198875197492E-01 -5.591100436149E-02  4.313938949078E-01
  11 T   1 H    -4.423062520014E-01  4.009691042548E-01 -2.582531596209E-01
  12 F   1 H    -3.407777361243E-01 -9.903089574521E-02  3.432753562562E-01
  13 T   1 H     4.115162401666E-01  3.066306969245E-01 -4.780149726181E-01
  14 F   1 H    -2.153543304574E-01 -1.933693030755E-01  3.951144567579E-01
  15 T   6 C     4.828361718208E-01 -6.557153751327E-02 -2.175783005700E-01
  16 F   6 C     1.520067630567E-01  4.344284624867E-01 -4.840770933411E-02
  17 T   1 H     4.108152144486E-01 -2.600715287605E-02 -2.860690867648E-01
  18 F   1 H     2.600619338887E-01  4.739928471240E-01  6.317763267535E-02
  19 T   6 C     3.068355187402E-01 -4.801996007440E-01  4.523449915253E-01
  20 F   6 C     6.745540773063E-02  1.980039925598E-02 -2.870351194842E-01
  21 T   1 H     3.952634599998E-01  4.846335797964E-01  3.577093092200E-01
  22 F   1 H     1.269242705764E-01 -1.536642020362E-02 -4.106298802034E-01
  23 T   1 H     1.741307089936E-01  3.406395754344E-01  4.249007885833E-01
  24 F   1 H    -8.426121314891E-02 -1.593604245656E-01 -3.334911335593E-01
  25 T   1 H     2.421622820351E-01 -4.157130796983E-01  4.053539719028E-01
  26 F   1 H     1.789329483990E-01  8.428692030172E-02 -1.578753617333E-01
  27 T   6 C    -2.820582158352E-01  6.888896383235E-02  7.939378878483E-02
  28 F   6 C    -1.050482495248E-02 -4.311110361676E-01 -1.490528203325E-01
  29 T   1 H    -1.757381888826E-01  2.095975235506E-01  2.309946753392E-01
  30 F   1 H    -2.139715178859E-02 -2.904024764494E-01 -1.146642875668E-01
  31 T   6 C    -3.850914429296E-01  1.110756736824E-01 -1.436711958188E-02
  32 F   6 C     1.254427932643E-01 -3.889243263176E-01 -3.832883388008E-03
  33 T   7 N    -3.501938030701E-01  3.407551028670E-01  9.892753252665E-02
  34 F   7 N     2.418275703403E-01 -1.592448971330E-01  1.909489059371E-01
  35 T   8 O    -2.317445867833E-01  4.941362804054E-01  2.778110633817E-01
  36 F   8 O     2.163252170237E-01 -5.863719594591E-03  2.258808671887E-01
  37 T   8 O    -4.336699224679E-01  3.845163048097E-01  1.560310003855E-02
  38 F   8 O     3.689132047711E-01 -1.154836951903E-01  3.181862272776E-01

 TRANSFORMATION MATRIX PRIMITIVE-CRYSTALLOGRAPHIC CELL
  0.0000  1.0000  1.0000  1.0000  0.0000  1.0000  1.0000  1.0000  0.0000

 *******************************************************************************
 CRYSTALLOGRAPHIC CELL (VOLUME=        698.88639999)
         A              B              C           ALPHA      BETA       GAMMA 
     8.16690000    11.56360000     7.41280000    90.000000  93.312000  90.000000

 COORDINATES IN THE CRYSTALLOGRAPHIC CELL
     ATOM              X/A                 Y/B                 Z/C    
 *******************************************************************************
   1 T   6 C    -5.849133073549E-02 -1.750729591379E-01 -2.788482361784E-01
   2 F   6 C    -5.849133073549E-02 -3.249270408621E-01  2.211517638216E-01
   3 T   6 C    -3.321666439835E-02 -2.964139164811E-01 -2.556174166090E-01
   4 F   6 C    -3.321666439835E-02 -2.035860835189E-01  2.443825833910E-01
   5 T   6 C     6.726125569685E-02 -9.638942116314E-02 -2.215880563323E-01
   6 F   6 C    -4.327387443032E-01  9.638942116314E-02 -2.215880563323E-01
   7 T   1 H     4.630702347032E-02 -5.965762757829E-03 -2.364927975779E-01
   8 F   1 H    -4.536929765297E-01  5.965762757829E-03 -2.364927975779E-01
   9 T   7 N    -2.023147948523E-01 -1.337086897601E-01 -3.535962095092E-01
  10 F   7 N     2.976852051477E-01  1.337086897601E-01 -3.535962095092E-01
  11 T   1 H    -2.074889016824E-01 -5.076425793856E-02 -3.915419940628E-01
  12 F   1 H     2.925110983176E-01  5.076425793856E-02 -3.915419940628E-01
  13 T   1 H     2.085497420699E-01  3.134352853120E-01  9.808095485460E-02
  14 F   1 H     2.085497420699E-01  1.865647146880E-01 -4.019190451454E-01
  15 T   6 C     1.170069950480E-01 -3.345852956179E-01 -1.825785325612E-01
  16 F   6 C     1.170069950480E-01 -1.654147043821E-01  3.174214674388E-01
  17 T   1 H    -3.614457270447E-01  7.537664027993E-02  3.354385741687E-01
  18 F   1 H     1.385542729553E-01 -7.537664027993E-02  3.354385741687E-01
  19 T   6 C     3.326549360206E-01  1.196900555048E-01  1.871454632354E-01
  20 F   6 C    -1.673450639794E-01 -1.196900555048E-01  1.871454632354E-01
  21 T   1 H     2.235397145083E-01  1.341695947117E-01  2.610938652881E-01
  22 F   1 H    -2.764602854917E-01 -1.341695947117E-01  2.610938652881E-01
  23 T   1 H     2.957048275120E-01  1.291959610713E-01  4.493474792236E-02
  24 F   1 H    -2.042951724880E-01 -1.291959610713E-01  4.493474792236E-02
  25 T   1 H     3.737393050847E-01  3.161466681805E-02  2.105476152170E-01
  26 F   1 H    -1.262606949153E-01 -3.161466681805E-02  2.105476152170E-01
  27 T   6 C     2.151704842262E-01 -1.357766954413E-01 -1.462815203938E-01
  28 F   6 C    -2.848295157738E-01  1.357766954413E-01 -1.462815203938E-01
  29 T   1 H     3.081651938862E-01 -7.717051854700E-02 -9.856767033559E-02
  30 F   1 H    -1.918348061138E-01  7.717051854700E-02 -9.856767033559E-02
  31 T   6 C     2.408999985151E-01 -2.552671180969E-01 -1.298243248326E-01
  32 F   6 C    -2.591000014849E-01  2.552671180969E-01 -1.298243248326E-01
  33 T   7 N    -1.050617807681E-01  2.039893132948E-01  4.458168836351E-01
  34 F   7 N    -1.050617807681E-01  2.960106867052E-01 -5.418311636489E-02
  35 T   8 O    -4.981540347148E-01 -2.240349019035E-01 -7.709684879821E-03
  36 F   8 O     1.845965285229E-03  2.240349019035E-01 -7.709684879821E-03
  37 T   8 O    -8.310533634192E-02  9.870843638047E-02  4.676216411516E-01
  38 F   8 O    -8.310533634192E-02  4.012915636195E-01 -3.237835884841E-02

 T = ATOM BELONGING TO THE ASYMMETRIC UNIT

 TOTAL ENERGY(DFT)(AU)( 16) -1.0623104829689E+03     DE (AU)   -1.410E-02

 UPDATED TRUST RADIUS     0.100E+01

 SYMMETRY ALLOWED FORCES  (COORDINATE, FORCE)

    1  1.0519856E-03    2 -5.8005731E-03    3 -2.1096146E-03    4 -2.8865109E-03
    5  1.7717213E-03    6 -8.5022871E-04    7 -1.5277260E-02    8  1.3463772E-02
    9 -5.8074102E-03   10  1.5552344E-02   11 -1.0829246E-02   12  8.5812262E-03
   13 -6.9785208E-03   14  1.7816671E-02   15  1.1611078E-02   16  7.5500595E-03
   17 -8.6007868E-03   18  5.4839332E-03   19 -1.0595050E-03   20 -4.7725274E-03
   21 -1.5571604E-02   22  1.7568123E-02   23 -1.2803854E-02   24  5.8597802E-03
   25 -1.4741338E-02   26  9.5323517E-03   27 -8.6657090E-03   28 -1.0021788E-03
   29  5.2187107E-04   30  1.0226164E-02   31  6.9537051E-03   32  2.7370669E-03
   33 -5.6542553E-03   34 -1.6197862E-03   35 -8.9503497E-03   36 -1.6606672E-03
   37 -4.4124817E-03   38  4.3395456E-03   39 -2.8368851E-03   40 -2.1828935E-03
   41 -7.6626752E-03   42 -2.1833732E-02   43  4.8256063E-03   44  5.6541320E-04
   45  1.6246594E-02   46 -4.5957298E-03   47  3.3305670E-03   48  3.7150537E-03
   49  1.2782319E-02   50 -4.3155897E-04   51 -8.4601939E-03   52 -7.1699100E-04
   53  2.4451151E-04   54  2.4533747E-03   55 -6.1660642E-03

 GRADIENT NORM     0.065040  GRADIENT THRESHOLD     0.500000

 EIGENVALUES OF THE ESTIMATED HESSIAN
  0.8800E-04  0.5732E-03  0.8229E-03  0.1027E-02  0.1477E-02  0.1587E-02
  0.2565E-02  0.4549E-02  0.6623E-02  0.8695E-02  0.1362E-01  0.1696E-01
  0.2242E-01  0.3130E-01  0.3505E-01  0.3714E-01  0.4395E-01  0.4928E-01
  0.5441E-01  0.6204E-01  0.6515E-01  0.6859E-01  0.7236E-01  0.7846E-01
  0.1011      0.1092      0.1113      0.1285      0.1387      0.1391    
  0.1476      0.1868      0.2027      0.2497      0.2945      0.3487    
  0.3704      0.4342      0.5477      0.6063      0.7220      0.7735    
  0.9147      0.9530      0.9790       1.028       1.111       1.192    
   1.242       1.335       1.403       1.438       1.501       1.892    
   2.694    
 NEWTON STEP ( 0.7931370025E+01) EXCEEDS TRUST RADIUS ( 0.1000000000E+01)
 LEVEL SHIFT    -0.5682628834E-03

 PREDICTED ENERGY CHANGE    -0.680E-02

 MAX GRADIENT      0.021834  THRESHOLD              0.000450 CONVERGED NO
 RMS GRADIENT      0.008770  THRESHOLD              0.000300 CONVERGED NO
 MAX DISPLAC.      0.352353  THRESHOLD              0.001800 CONVERGED NO
 RMS DISPLAC.      0.134840  THRESHOLD              0.001200 CONVERGED NO
 TTTTTTTTTTTTTTTTTTTTTTTTTTTTTT OPTI        TELAPSE     1091.62 TCPU     1017.35
....

 *******************************************************************************
 COORDINATE OPTIMIZATION - POINT   35
 *******************************************************************************
 LATTICE PARAMETERS (ANGSTROMS AND DEGREES) - BOHR = 0.5291772083 ANGSTROM
 PRIMITIVE CELL - CENTRING CODE 6/0 VOLUME=   349.443200 - DENSITY  1.445 g/cm^3
         A              B              C           ALPHA      BETA       GAMMA 
     8.09876267     7.87987281     8.09876267   118.542000  88.891869 124.739910
 *******************************************************************************
 ATOMS IN THE ASYMMETRIC UNIT   19 - ATOMS IN THE UNIT CELL:   38
     ATOM              X/A                 Y/B                 Z/C    
 *******************************************************************************
   1 T   6 C    -4.549373914645E-01 -3.366891860774E-01 -2.334676549063E-01
   2 F   6 C    -1.032215311711E-01  1.633108139226E-01 -3.817517946129E-01
   3 T   6 C     4.463881110254E-01 -2.897651794788E-01 -3.313677703281E-01
   4 F   6 C     4.160259084931E-02  2.102348205212E-01 -2.361532905042E-01
   5 T   6 C    -3.196195901741E-01 -1.511575625241E-01 -2.825234376726E-02
   6 F   6 C    -1.229052187568E-01  3.488424374759E-01 -3.315379723499E-01
   7 T   1 H    -2.434762365446E-01 -1.870947660335E-01  4.411235706079E-02
   8 F   1 H    -2.312071230943E-01  3.129052339665E-01 -4.436185294889E-01
   9 T   7 N    -4.851194302931E-01  4.474786823214E-01 -3.342695320502E-01
  10 F   7 N    -2.182517856284E-01 -5.252131767861E-02  4.325981126145E-01
  11 T   1 H    -4.403528354520E-01  4.035762819281E-01 -2.554498771345E-01
  12 F   1 H    -3.409738409374E-01 -9.642371807189E-02  3.439291173801E-01
  13 T   1 H     4.164511131606E-01  3.069623853552E-01 -4.795209387725E-01
  14 F   1 H    -2.135166758723E-01 -1.930376146448E-01  3.905112721946E-01
  15 T   6 C     4.827964017245E-01 -6.579634558518E-02 -2.216982249655E-01
  16 F   6 C     1.559018793803E-01  4.342036544148E-01 -4.859274730969E-02
  17 T   1 H     4.090185614607E-01 -2.791849020465E-02 -2.938275452234E-01
  18 F   1 H     2.659090550188E-01  4.720815097953E-01  6.306294833465E-02
  19 T   6 C     3.037902271621E-01 -4.844447958151E-01  4.514130420419E-01
  20 F   6 C     6.414216214297E-02  1.555520418486E-02 -2.882350229772E-01
  21 T   1 H     3.915043930021E-01  4.755405987363E-01  3.560520648800E-01
  22 F   1 H     1.194885338563E-01 -2.445940126374E-02 -4.159637942659E-01
  23 T   1 H     1.689360079997E-01  3.372531912889E-01  4.267385011208E-01
  24 F   1 H    -8.948530983190E-02 -1.627468087111E-01 -3.316828167108E-01
  25 T   1 H     2.413372673562E-01 -4.197779587190E-01  4.004682103451E-01
  26 F   1 H     1.797538309359E-01  8.022204128103E-02 -1.611152260752E-01
  27 T   6 C    -2.852465511642E-01  7.074390570836E-02  7.825453239869E-02
  28 F   6 C    -7.510626690331E-03 -4.292560942916E-01 -1.440095431275E-01
  29 T   1 H    -1.807777597384E-01  2.129718151618E-01  2.337722407559E-01
  30 F   1 H    -2.080042559411E-02 -2.870281848382E-01 -1.062504250998E-01
  31 T   6 C    -3.857458689523E-01  1.139683225474E-01 -1.767996432480E-02
  32 F   6 C     1.316482868722E-01 -3.860316774526E-01 -2.858085003100E-04
  33 T   7 N    -3.518104597238E-01  3.420666667426E-01  9.280748085720E-02
  34 F   7 N     2.492591858854E-01 -1.579333332574E-01  1.938771264664E-01
  35 T   8 O    -2.417974315630E-01  4.935334459917E-01  2.748317715370E-01
  36 F   8 O     2.187016744547E-01 -6.466554008304E-03  2.353308775547E-01
  37 T   8 O    -4.331690805650E-01  3.863031963561E-01  6.940701031445E-03
  38 F   8 O     3.793624953246E-01 -1.136968036439E-01  3.194722769211E-01

 TRANSFORMATION MATRIX PRIMITIVE-CRYSTALLOGRAPHIC CELL
  0.0000  1.0000  1.0000  1.0000  0.0000  1.0000  1.0000  1.0000  0.0000

 *******************************************************************************
 CRYSTALLOGRAPHIC CELL (VOLUME=        698.88639999)
         A              B              C           ALPHA      BETA       GAMMA 
     8.16690000    11.56360000     7.41280000    90.000000  93.312000  90.000000

 COORDINATES IN THE CRYSTALLOGRAPHIC CELL
     ATOM              X/A                 Y/B                 Z/C    
 *******************************************************************************
   1 T   6 C    -5.760972475962E-02 -1.758579301467E-01 -2.790794613178E-01
   2 F   6 C    -5.760972475962E-02 -3.241420698533E-01  2.209205386822E-01
   3 T   6 C    -3.376053041613E-02 -2.976072399120E-01 -2.560046490626E-01
   4 F   6 C    -3.376053041613E-02 -2.023927600880E-01  2.439953509374E-01
   5 T   6 C     7.010484194140E-02 -9.835718570865E-02 -2.212624044655E-01
   6 F   6 C    -4.298951580586E-01  9.835718570865E-02 -2.212624044655E-01
   7 T   1 H     5.024691378596E-02 -6.134556725171E-03 -2.373416798195E-01
   8 F   1 H    -4.497530862140E-01  6.134556725171E-03 -2.373416798195E-01
   9 T   7 N    -2.008357097178E-01 -1.334338223323E-01 -3.516856079608E-01
  10 F   7 N     2.991642902822E-01  1.334338223323E-01 -3.516856079608E-01
  11 T   1 H    -2.057603798772E-01 -4.968949725730E-02 -3.906633381947E-01
  12 F   1 H     2.942396201228E-01  4.968949725730E-02 -3.906633381947E-01
  13 T   1 H     2.054951667110E-01  3.149838945165E-01  1.014672186441E-01
  14 F   1 H     2.054951667110E-01  1.850161054835E-01 -3.985327813559E-01
  15 T   6 C     1.148545138624E-01 -3.365527388279E-01 -1.806508594476E-01
  16 F   6 C     1.148545138624E-01 -1.634472611721E-01  3.193491405524E-01
  17 T   1 H    -3.653822984444E-01  7.155475322096E-02  3.374638082397E-01
  18 F   1 H     1.346177015556E-01 -7.155475322096E-02  3.374638082397E-01
  19 T   6 C     3.315890095323E-01  1.198240325095E-01  1.839661946525E-01
  20 F   6 C    -1.684109904677E-01 -1.198240325095E-01  1.839661946525E-01
  21 T   1 H     2.200441353070E-01  1.360079295729E-01  2.554964634292E-01
  22 F   1 H    -2.799558646930E-01 -1.360079295729E-01  2.554964634292E-01
  23 T   1 H     2.975278422050E-01  1.292106589158E-01  3.972534908389E-02
  24 F   1 H    -2.024721577950E-01 -1.292106589158E-01  3.972534908389E-02
  25 T   1 H     3.696764921350E-01  3.079171821017E-02  2.105455491461E-01
  26 F   1 H    -1.303235078650E-01 -3.079171821017E-02  2.105455491461E-01
  27 T   6 C     2.171224946356E-01 -1.388679622369E-01 -1.463785889272E-01
  28 F   6 C    -2.828775053644E-01  1.388679622369E-01 -1.463785889272E-01
  29 T   1 H     3.137609078280E-01 -7.998866707213E-02 -1.007890926662E-01
  30 F   1 H    -1.862390921720E-01  7.998866707213E-02 -1.007890926662E-01
  31 T   6 C     2.410171135874E-01 -2.586970779122E-01 -1.270487910400E-01
  32 F   6 C    -2.589828864126E-01  2.586970779122E-01 -1.270487910400E-01
  33 T   7 N    -1.066576963382E-01  1.994651771954E-01  4.487243630808E-01
  34 F   7 N    -1.066576963382E-01  3.005348228046E-01 -5.127563691921E-02
  35 T   8 O    -4.949186754542E-01 -2.302495530088E-01 -1.154787855413E-02
  36 F   8 O     5.081324545826E-03  2.302495530088E-01 -1.154787855413E-02
  37 T   8 O    -8.679351102375E-02  9.373421205519E-02  4.730967073798E-01
  38 F   8 O    -8.679351102375E-02  4.062657879448E-01 -2.690329262016E-02

 T = ATOM BELONGING TO THE ASYMMETRIC UNIT

 ENERGY DIFFERENCE WITH RESPECT TO FIRST CALCULATION USING
 THE PRESENT REFERENCE GEOMETRY:  7.129299319786E-07

 MAXIMUM ATOM DISPLACEMENT WITH RESPECT TO
 THE PRESENT REFERENCE GEOMETRY:   9.070581979870E-03

 REFERENCE GEOMETRY WILL BE CHANGED

 TOTAL ENERGY(DFT)(AU)( 24) -1.0623133467356E+03     DE (AU)    9.901E-07

 SYMMETRY ALLOWED FORCES  (COORDINATE, FORCE)

    1 -2.5407245E-05    2  4.5654731E-05    3  5.6436898E-05    4  3.8447333E-05
    5 -2.3058621E-05    6  3.1015253E-05    7 -7.9224550E-06    8 -2.0195013E-05
    9 -7.2332811E-05   10 -6.0037712E-07   11  4.1586018E-06   12  7.5602687E-06
   13  6.4476284E-06   14 -2.6167872E-05   15 -5.2418911E-05   16 -2.3191793E-05
   17  1.8679570E-05   18 -2.4683144E-05   19  4.0572350E-05   20 -2.4123550E-05
   21  4.0943254E-05   22 -1.4293797E-05   23  6.2674144E-06   24 -9.2235420E-07
   25  2.2572591E-07   26 -1.4308061E-06   27 -2.6038852E-06   28  2.3949044E-06
   29 -8.7235529E-06   30  1.2007976E-08   31 -1.7995285E-06   32  3.1011708E-07
   33  8.3481961E-07   34 -7.7383049E-07   35  2.2645378E-06   36 -1.1129801E-06
   37 -1.2573859E-06   38 -1.0827460E-06   39 -2.3371376E-06   40 -2.8224025E-05
   41  2.8586241E-05   42 -2.0339468E-06   43  1.2331497E-06   44  2.8321373E-06
   45  5.4364544E-06   46  6.4583888E-05   47 -6.2735343E-05   48 -5.1615672E-05
   49 -5.8968496E-05   50  9.5724964E-05   51  9.9759483E-05   52 -3.2535595E-05
   53 -1.6520350E-05   54 -2.7520095E-05   55  7.0427244E-05

 GRADIENT NORM     0.000257  GRADIENT THRESHOLD     0.500000

 HESSIAN UPDATE SKIPPED

 EIGENVALUES OF THE ESTIMATED HESSIAN
  0.1172E-02  0.1738E-02  0.2210E-02  0.2780E-02  0.3748E-02  0.6864E-02
  0.8044E-02  0.1057E-01  0.1730E-01  0.1905E-01  0.2038E-01  0.2130E-01
  0.2733E-01  0.3198E-01  0.3938E-01  0.4888E-01  0.5833E-01  0.6465E-01
  0.6695E-01  0.7051E-01  0.7838E-01  0.8867E-01  0.1086      0.1123    
  0.1295      0.1370      0.1387      0.1401      0.1790      0.1831    
  0.1938      0.2162      0.2770      0.3074      0.3208      0.3498    
  0.4239      0.4583      0.5505      0.6193      0.7181      0.7605    
  0.9155      0.9436      0.9694       1.030       1.105       1.183    
   1.241       1.347       1.366       1.404       1.475       1.642    
   2.027    
 NEWTON STEP ( 0.4628448200E-02) EXCEEDS TRUST RADIUS ( 0.1442213107E-02)
 LEVEL SHIFT    -0.1184410734E-02

 PREDICTED ENERGY CHANGE    -0.487E-07

 MAX GRADIENT      0.000100  THRESHOLD              0.000450 CONVERGED YES
 RMS GRADIENT      0.000035  THRESHOLD              0.000300 CONVERGED YES
 MAX DISPLAC.      0.000685  THRESHOLD              0.001800 CONVERGED YES
 RMS DISPLAC.      0.000194  THRESHOLD              0.001200 CONVERGED YES

 CONVERGENCE TESTS SATISFIED AFTER  35 ENERGY AND GRADIENT CALCULATIONS

 ******************************************************************
 * OPT END - CONVERGED * E(AU):  -1.062313346736E+03  POINTS   35 *
 ******************************************************************
...
  ATOM    Z CHARGE  SHELL POPULATION

   1 C    6  5.790  1.997  2.747  0.981  0.066
   2 C    6  5.790  1.997  2.747  0.981  0.066
   3 C    6  5.887  1.996  2.765  1.082  0.042
   4 C    6  5.887  1.996  2.765  1.082  0.042
   5 C    6  6.149  1.996  2.776  1.342  0.035
   6 C    6  6.149  1.996  2.776  1.342  0.035
   7 H    1  0.875  0.530  0.332  0.013
   8 H    1  0.875  0.530  0.332  0.013
   9 N    7  7.589  1.997  3.331  2.248  0.013
  10 N    7  7.589  1.997  3.331  2.248  0.013
  11 H    1  0.705  0.508  0.172  0.025
  12 H    1  0.705  0.508  0.172  0.025
  13 H    1  0.699  0.497  0.177  0.026
  14 H    1  0.699  0.497  0.177  0.026
  15 C    6  6.150  1.997  2.764  1.352  0.038
  16 C    6  6.150  1.997  2.764  1.352  0.038
  17 H    1  0.872  0.531  0.329  0.013
  18 H    1  0.872  0.531  0.329  0.013
  19 C    6  6.417  1.997  2.798  1.589  0.034
  20 C    6  6.417  1.997  2.798  1.589  0.034
  21 H    1  0.876  0.526  0.338  0.012
  22 H    1  0.876  0.526  0.338  0.012
  23 H    1  0.862  0.526  0.324  0.012
  24 H    1  0.862  0.526  0.324  0.012
  25 H    1  0.869  0.528  0.329  0.012
  26 H    1  0.869  0.528  0.329  0.012
  27 C    6  6.108  1.997  2.765  1.309  0.038
  28 C    6  6.108  1.997  2.765  1.309  0.038
  29 H    1  0.868  0.531  0.325  0.013
  30 H    1  0.868  0.531  0.325  0.013
  31 C    6  5.787  1.996  2.800  0.939  0.052
  32 C    6  5.787  1.996  2.800  0.939  0.052
  33 N    7  6.604  1.997  3.238  1.293  0.076
  34 N    7  6.604  1.997  3.238  1.293  0.076
  35 O    8  8.440  1.997  3.775  2.641  0.028
  36 O    8  8.440  1.997  3.775  2.641  0.028
  37 O    8  8.454  1.997  3.776  2.653  0.027
  38 O    8  8.454  1.997  3.776  2.653  0.027

 FINAL OPTIMIZED GEOMETRY - DIMENSIONALITY OF THE SYSTEM      3
 (NON PERIODIC DIRECTION: LATTICE PARAMETER FORMALLY SET TO 500)
 *******************************************************************************
 LATTICE PARAMETERS (ANGSTROMS AND DEGREES) - BOHR = 0.5291772083 ANGSTROM
 PRIMITIVE CELL - CENTRING CODE 6/0 VOLUME=   349.443200 - DENSITY  1.445 g/cm^3
         A              B              C           ALPHA      BETA       GAMMA 
     8.09876267     7.87987281     8.09876267   118.542000  88.891869 124.739910
 *******************************************************************************
 ATOMS IN THE ASYMMETRIC UNIT   19 - ATOMS IN THE UNIT CELL:   38
     ATOM              X/A                 Y/B                 Z/C    
 *******************************************************************************
   1 T   6 C    -4.549373914645E-01 -3.366891860774E-01 -2.334676549063E-01
   2 F   6 C    -1.032215311711E-01  1.633108139226E-01 -3.817517946129E-01
   3 T   6 C     4.463881110254E-01 -2.897651794788E-01 -3.313677703281E-01
   4 F   6 C     4.160259084931E-02  2.102348205212E-01 -2.361532905042E-01
   5 T   6 C    -3.196195901741E-01 -1.511575625241E-01 -2.825234376726E-02
   6 F   6 C    -1.229052187568E-01  3.488424374759E-01 -3.315379723499E-01
   7 T   1 H    -2.434762365446E-01 -1.870947660335E-01  4.411235706079E-02
   8 F   1 H    -2.312071230943E-01  3.129052339665E-01 -4.436185294889E-01
   9 T   7 N    -4.851194302931E-01  4.474786823214E-01 -3.342695320502E-01
  10 F   7 N    -2.182517856284E-01 -5.252131767861E-02  4.325981126145E-01
  11 T   1 H    -4.403528354520E-01  4.035762819281E-01 -2.554498771345E-01
  12 F   1 H    -3.409738409374E-01 -9.642371807189E-02  3.439291173801E-01
  13 T   1 H     4.164511131606E-01  3.069623853552E-01 -4.795209387725E-01
  14 F   1 H    -2.135166758723E-01 -1.930376146448E-01  3.905112721946E-01
  15 T   6 C     4.827964017245E-01 -6.579634558518E-02 -2.216982249655E-01
  16 F   6 C     1.559018793803E-01  4.342036544148E-01 -4.859274730969E-02
  17 T   1 H     4.090185614607E-01 -2.791849020465E-02 -2.938275452234E-01
  18 F   1 H     2.659090550188E-01  4.720815097953E-01  6.306294833465E-02
  19 T   6 C     3.037902271621E-01 -4.844447958151E-01  4.514130420419E-01
  20 F   6 C     6.414216214297E-02  1.555520418486E-02 -2.882350229772E-01
  21 T   1 H     3.915043930021E-01  4.755405987363E-01  3.560520648800E-01
  22 F   1 H     1.194885338563E-01 -2.445940126374E-02 -4.159637942659E-01
  23 T   1 H     1.689360079997E-01  3.372531912889E-01  4.267385011208E-01
  24 F   1 H    -8.948530983190E-02 -1.627468087111E-01 -3.316828167108E-01
  25 T   1 H     2.413372673562E-01 -4.197779587190E-01  4.004682103451E-01
  26 F   1 H     1.797538309359E-01  8.022204128103E-02 -1.611152260752E-01
  27 T   6 C    -2.852465511642E-01  7.074390570836E-02  7.825453239869E-02
  28 F   6 C    -7.510626690331E-03 -4.292560942916E-01 -1.440095431275E-01
  29 T   1 H    -1.807777597384E-01  2.129718151618E-01  2.337722407559E-01
  30 F   1 H    -2.080042559411E-02 -2.870281848382E-01 -1.062504250998E-01
  31 T   6 C    -3.857458689523E-01  1.139683225474E-01 -1.767996432480E-02
  32 F   6 C     1.316482868722E-01 -3.860316774526E-01 -2.858085003100E-04
  33 T   7 N    -3.518104597238E-01  3.420666667426E-01  9.280748085720E-02
  34 F   7 N     2.492591858854E-01 -1.579333332574E-01  1.938771264664E-01
  35 T   8 O    -2.417974315630E-01  4.935334459917E-01  2.748317715370E-01
  36 F   8 O     2.187016744547E-01 -6.466554008304E-03  2.353308775547E-01
  37 T   8 O    -4.331690805650E-01  3.863031963561E-01  6.940701031445E-03
  38 F   8 O     3.793624953246E-01 -1.136968036439E-01  3.194722769211E-01

 TRANSFORMATION MATRIX PRIMITIVE-CRYSTALLOGRAPHIC CELL
  0.0000  1.0000  1.0000  1.0000  0.0000  1.0000  1.0000  1.0000  0.0000

 *******************************************************************************
 CRYSTALLOGRAPHIC CELL (VOLUME=        698.88639999)
         A              B              C           ALPHA      BETA       GAMMA 
     8.16690000    11.56360000     7.41280000    90.000000  93.312000  90.000000

 COORDINATES IN THE CRYSTALLOGRAPHIC CELL
     ATOM              X/A                 Y/B                 Z/C    
 *******************************************************************************
   1 T   6 C    -5.760972475962E-02 -1.758579301467E-01 -2.790794613178E-01
   2 F   6 C    -5.760972475962E-02 -3.241420698533E-01  2.209205386822E-01
   3 T   6 C    -3.376053041613E-02 -2.976072399120E-01 -2.560046490626E-01
   4 F   6 C    -3.376053041613E-02 -2.023927600880E-01  2.439953509374E-01
   5 T   6 C     7.010484194140E-02 -9.835718570865E-02 -2.212624044655E-01
   6 F   6 C    -4.298951580586E-01  9.835718570865E-02 -2.212624044655E-01
   7 T   1 H     5.024691378596E-02 -6.134556725171E-03 -2.373416798195E-01
   8 F   1 H    -4.497530862140E-01  6.134556725171E-03 -2.373416798195E-01
   9 T   7 N    -2.008357097178E-01 -1.334338223323E-01 -3.516856079608E-01
  10 F   7 N     2.991642902822E-01  1.334338223323E-01 -3.516856079608E-01
  11 T   1 H    -2.057603798772E-01 -4.968949725730E-02 -3.906633381947E-01
  12 F   1 H     2.942396201228E-01  4.968949725730E-02 -3.906633381947E-01
  13 T   1 H     2.054951667110E-01  3.149838945165E-01  1.014672186441E-01
  14 F   1 H     2.054951667110E-01  1.850161054835E-01 -3.985327813559E-01
  15 T   6 C     1.148545138624E-01 -3.365527388279E-01 -1.806508594476E-01
  16 F   6 C     1.148545138624E-01 -1.634472611721E-01  3.193491405524E-01
  17 T   1 H    -3.653822984444E-01  7.155475322096E-02  3.374638082397E-01
  18 F   1 H     1.346177015556E-01 -7.155475322096E-02  3.374638082397E-01
  19 T   6 C     3.315890095323E-01  1.198240325095E-01  1.839661946525E-01
  20 F   6 C    -1.684109904677E-01 -1.198240325095E-01  1.839661946525E-01
  21 T   1 H     2.200441353070E-01  1.360079295729E-01  2.554964634292E-01
  22 F   1 H    -2.799558646930E-01 -1.360079295729E-01  2.554964634292E-01
  23 T   1 H     2.975278422050E-01  1.292106589158E-01  3.972534908389E-02
  24 F   1 H    -2.024721577950E-01 -1.292106589158E-01  3.972534908389E-02
  25 T   1 H     3.696764921350E-01  3.079171821017E-02  2.105455491461E-01
  26 F   1 H    -1.303235078650E-01 -3.079171821017E-02  2.105455491461E-01
  27 T   6 C     2.171224946356E-01 -1.388679622369E-01 -1.463785889272E-01
  28 F   6 C    -2.828775053644E-01  1.388679622369E-01 -1.463785889272E-01
  29 T   1 H     3.137609078280E-01 -7.998866707213E-02 -1.007890926662E-01
  30 F   1 H    -1.862390921720E-01  7.998866707213E-02 -1.007890926662E-01
  31 T   6 C     2.410171135874E-01 -2.586970779122E-01 -1.270487910400E-01
  32 F   6 C    -2.589828864126E-01  2.586970779122E-01 -1.270487910400E-01
  33 T   7 N    -1.066576963382E-01  1.994651771954E-01  4.487243630808E-01
  34 F   7 N    -1.066576963382E-01  3.005348228046E-01 -5.127563691921E-02
  35 T   8 O    -4.949186754542E-01 -2.302495530088E-01 -1.154787855413E-02
  36 F   8 O     5.081324545826E-03  2.302495530088E-01 -1.154787855413E-02
  37 T   8 O    -8.679351102375E-02  9.373421205519E-02  4.730967073798E-01
  38 F   8 O    -8.679351102375E-02  4.062657879448E-01 -2.690329262016E-02

 T = ATOM BELONGING TO THE ASYMMETRIC UNIT
 INFORMATION **** fort.34 **** GEOMETRY OUTPUT FILE

 DIRECT LATTICE VECTORS CARTESIAN COMPONENTS (ANGSTROM)
          X                    Y                    Z
  -0.429758028425E+01   0.578180000000E+01   0.370020934291E+01
   0.386931971575E+01  -0.578180000000E+01   0.370020934291E+01
   0.429758028425E+01   0.578180000000E+01  -0.370020934291E+01


 CARTESIAN COORDINATES - PRIMITIVE CELL
 *******************************************************************************
 *      ATOM          X(ANGSTROM)         Y(ANGSTROM)         Z(ANGSTROM)
 *******************************************************************************
    1     6 C    -3.509741323808E-01 -2.033550761044E+00 -2.065304860366E+00
    2     6 C    -5.651044166271E-01 -3.748249238956E+00  1.634904482546E+00
    3     6 C    -1.660821793112E-01 -3.441411079446E+00 -1.894541588581E+00
    4     6 C    -3.802124635575E-01 -2.340388920554E+00  1.805667754331E+00
    5     6 C     6.672971967736E-01 -1.137363152661E+00 -1.637434432476E+00
    6     6 C    -3.416152803226E+00  1.137363152661E+00 -1.637434432476E+00
    7     1 H     5.120056029250E-01 -7.093756014719E-02 -1.756427802261E+00
    8     1 H    -3.571444397075E+00  7.093756014719E-02 -1.756427802261E+00
    9     7 N    -1.489592079298E+00 -1.542975347922E+00 -2.602620744688E+00
   10     7 N     2.593857920702E+00  1.542975347922E+00 -2.602620744688E+00
   11     1 H    -1.513118743114E+00 -5.745894704845E-01 -2.891072267842E+00
   12     1 H     2.570331256886E+00  5.745894704845E-01 -2.891072267842E+00
   13     1 H     1.634804068273E+00  3.642347762631E+00  7.508999008525E-01
   14     1 H     1.848934352519E+00  2.139452237369E+00 -2.949309442059E+00
   15     6 C     1.015370969029E+00 -3.891761250710E+00 -1.336891995866E+00
   16     6 C     8.012406847825E-01 -1.890038749290E+00  2.363317347045E+00
   17     1 H    -3.128563135528E+00  8.274305443459E-01  2.497373472286E+00
   18     1 H     9.548868644721E-01 -8.274305443459E-01  2.497373472286E+00
   19     6 C     2.629268814844E+00  1.385597182327E+00  1.361426864466E+00
   20     6 C    -1.454181185156E+00 -1.385597182327E+00  1.361426864466E+00
   21     1 H     1.687659387963E+00  1.572741294409E+00  1.890780802123E+00
   22     1 H    -2.395790612037E+00 -1.572741294409E+00  1.890780802123E+00
   23     1 H     2.412867333922E+00  1.494140375439E+00  2.939842156613E-01
   24     1 H    -1.670582666078E+00 -1.494140375439E+00  2.939842156613E-01
   25     1 H     2.928942587046E+00  3.560631126951E-01  1.558125216117E+00
   26     1 H    -1.154507412954E+00 -3.560631126951E-01  1.558125216117E+00
   27     6 C     1.835905879149E+00 -1.605813568123E+00 -1.083262844702E+00
   28     6 C    -2.247544120851E+00  1.605813568123E+00 -1.083262844702E+00
   29     1 H     2.605617952264E+00 -9.249569505552E-01 -7.458814846944E-01
   30     1 H    -1.477832047736E+00  9.249569505552E-01 -7.458814846944E-01
   31     6 C     2.022772652434E+00 -2.991469530146E+00 -9.402142472239E-01
   32     6 C    -2.060677347566E+00  2.991469530146E+00 -9.402142472239E-01
   33     7 N    -1.063233691054E+00  2.306535523017E+00  3.320748161327E+00
   34     7 N    -8.491034068075E-01  3.475264476983E+00 -3.794611815844E-01
   35     8 O     4.129894170468E+00 -2.662513731173E+00 -8.545913623359E-02
   36     8 O     4.644417046778E-02  2.662513731173E+00 -8.545913623359E-02
   37     8 O    -9.114425900343E-01  1.083904934521E+00  3.501113713495E+00
   38     8 O    -6.973123057880E-01  4.697895065479E+00 -1.990956294164E-01

 ****    2 SYMMOPS - TRANSLATORS IN FRACTIONAL UNITS
 **** MATRICES AND TRANSLATORS IN THE CRYSTALLOGRAPHIC REFERENCE FRAME
   V INV                    ROTATION MATRICES                   TRANSLATORS
   1   1  1.00  0.00  0.00  0.00  1.00  0.00  0.00  0.00  1.00  0.00  0.00  0.00
   2   2  0.00  1.00 -1.00  0.00  1.00 -0.00 -1.00  1.00 -0.00  0.00  0.50  0.50
 TTTTTTTTTTTTTTTTTTTTTTTTTTTTTT END         TELAPSE     9080.93 TCPU     8567.38
 EEEEEEEEEE TERMINATION  DATE 29 01 2019 TIME 17:29:34.0
NODE    0 CPU TIME =      8567.376
NODE    1 CPU TIME =      8883.190
NODE    2 CPU TIME =      8858.833
NODE    3 CPU TIME =      8926.645
NODE    4 CPU TIME =      8774.248
NODE    5 CPU TIME =      8695.306
NODE    6 CPU TIME =      8846.715
NODE    7 CPU TIME =      8880.094
NODE    8 CPU TIME =      8844.432
NODE    9 CPU TIME =      8771.373
NODE   10 CPU TIME =      8877.376
NODE   11 CPU TIME =      8833.108
NODE   12 CPU TIME =      8912.743
NODE   13 CPU TIME =      8927.365
NODE   14 CPU TIME =      8827.807
NODE   15 CPU TIME =      8889.225
NODE   16 CPU TIME =      8843.729
NODE   17 CPU TIME =      8885.468
NODE   18 CPU TIME =      8828.543
NODE   19 CPU TIME =      8647.099
NODE   20 CPU TIME =      8794.996
NODE   21 CPU TIME =      8797.416
NODE   22 CPU TIME =      8867.755
NODE   23 CPU TIME =      8859.002
    TOTAL CPU TIME =    211839.843
