bulk properties
static
 2.85117  0.00000  0.88264
 0.00000  1.93629  0.00000
 0.88264  0.00000  1.43957

-67.56014  0.00000 -35.29442
 0.00000 -5.37367  0.00000
-35.29442  0.00000 -15.42842
 0.00000 -5.37367  0.00000
-5.37367  0.00000 -2.65181
 0.00000 -2.65181  0.00000
-35.29442  0.00000 -15.42842
 0.00000 -2.65181  0.00000
-15.42842  0.00000 -5.11767

1907.0
 2.92203  0.00000  0.91528
 0.00000  1.95525  0.00000
 0.91528  0.00000  1.45861

 3.17646  0.00000  1.03326
 0.00000  2.01869  0.00000
 1.03326  0.00000  1.52567

-86.98855  0.00000 -45.12287
 0.00000 -6.42035  0.00000
-45.12287  0.00000 -19.78334
 0.00000 -7.38045  0.00000
-7.38045  0.00000 -3.64783
 0.00000 -3.64783  0.00000
-44.96078  0.00000 -19.99017
 0.00000 -3.18613  0.00000
-19.99017  0.00000 -6.95807

1542.0
 2.96205  0.00000  0.93375
 0.00000  1.96569  0.00000
 0.93375  0.00000  1.46928

 3.40761  0.00000  1.14134
 0.00000  2.07096  0.00000
 1.14134  0.00000  1.58522

-101.47642  0.00000 -52.34613
 0.00000 -7.14697  0.00000
-52.34613  0.00000 -23.04385
 0.00000 -8.83830  0.00000
-8.83830  0.00000 -4.36028
 0.00000 -4.36028  0.00000
-52.05302  0.00000 -23.41760
 0.00000 -3.54566  0.00000
-23.41760  0.00000 -8.44332

1318.0
 3.00677  0.00000  0.95444
 0.00000  1.97715  0.00000
 0.95444  0.00000  1.48115

 3.72494  0.00000  1.29067
 0.00000  2.13607  0.00000
 1.29067  0.00000  1.66543

-121.93193  0.00000 -62.52223
 0.00000 -8.12369  0.00000
-62.52223  0.00000 -27.63871
 0.00000 -10.84738  0.00000
-10.84738  0.00000 -5.34278
 0.00000 -5.34278  0.00000
-62.03285  0.00000 -28.26160
 0.00000 -4.02828  0.00000
-28.26160  0.00000 -10.56129

1064.0
 3.10261  0.00000  0.99889
 0.00000  2.00097  0.00000
 0.99889  0.00000  1.50639

 4.76715  0.00000  1.78570
 0.00000  2.31203  0.00000
 1.78570  0.00000  1.92138

-192.05323  0.00000 -97.28301
 0.00000 -11.19844  0.00000
-97.28301  0.00000 -43.33724
 0.00000 -17.24304  0.00000
-17.24304  0.00000 -8.47599
 0.00000 -8.47599  0.00000
-96.07092  0.00000 -44.88270
 0.00000 -5.54344  0.00000
-44.88270  0.00000 -17.92047

